EESchema Schematic File Version 4
EELAYER 30 0
EELAYER END
$Descr A4 11693 8268
encoding utf-8
Sheet 5 5
Title ""
Date ""
Rev ""
Comp ""
Comment1 ""
Comment2 ""
Comment3 ""
Comment4 ""
$EndDescr
$Comp
L MCU_ST_STM32F0:STM32F042F6Px U5
U 1 1 5C842D86
P 5800 3600
AR Path="/5C842D86" Ref="U5"  Part="1" 
AR Path="/5C801237/5C842D86" Ref="U5"  Part="1" 
F 0 "U5" H 5800 2714 50  0000 C CNN
F 1 "STM32F042F6Px" H 6050 2600 50  0000 C CNN
F 2 "Package_SO:TSSOP-20_4.4x6.5mm_P0.65mm" H 5300 2900 50  0001 R CNN
F 3 "http://www.st.com/st-web-ui/static/active/en/resource/technical/document/datasheet/DM00105814.pdf" H 5800 3600 50  0001 C CNN
F 4 "STM32F042F6Px" H 5800 3600 50  0001 C CNN "Part Number"
	1    5800 3600
	1    0    0    -1  
$EndComp
Text HLabel 6600 3900 2    50   Input ~ 0
CAN_RX
Text HLabel 6600 4000 2    50   Input ~ 0
CAN_TX
Text HLabel 6600 3700 2    50   Input ~ 0
CAN_STB
Text HLabel 6600 3800 2    50   Input ~ 0
CAN_SHDN
Text HLabel 5000 4100 0    50   Input ~ 0
SiMP_EN
Text HLabel 6600 3100 2    50   Input ~ 0
SiMP_IN
$Comp
L Device:R R18
U 1 1 5C8BBD7E
P 7850 2950
F 0 "R18" H 7920 2996 50  0000 L CNN
F 1 "10k" H 7920 2905 50  0000 L CNN
F 2 "Resistor_SMD:R_0603_1608Metric_Pad1.05x0.95mm_HandSolder" V 7780 2950 50  0001 C CNN
F 3 "~" H 7850 2950 50  0001 C CNN
F 4 "RE0603BRE0710KL" H 650 0   50  0001 C CNN "Part Number"
	1    7850 2950
	1    0    0    -1  
$EndComp
$Comp
L Device:R R19
U 1 1 5C8BBE02
P 7850 3400
F 0 "R19" H 7920 3446 50  0000 L CNN
F 1 "1K" H 7920 3355 50  0000 L CNN
F 2 "Resistor_SMD:R_0603_1608Metric_Pad1.05x0.95mm_HandSolder" V 7780 3400 50  0001 C CNN
F 3 "~" H 7850 3400 50  0001 C CNN
F 4 "CRCW06031K00FKEA" H 650 0   50  0001 C CNN "Part Number"
	1    7850 3400
	1    0    0    -1  
$EndComp
Wire Wire Line
	7850 3100 7850 3200
Wire Wire Line
	6400 3200 7850 3200
Connection ~ 7850 3200
Wire Wire Line
	7850 3200 7850 3250
$Comp
L power:+28V #PWR051
U 1 1 5C8BBE4A
P 7850 2700
F 0 "#PWR051" H 7850 2550 50  0001 C CNN
F 1 "+28V" H 7865 2873 50  0000 C CNN
F 2 "" H 8100 2750 50  0001 C CNN
F 3 "" H 8100 2750 50  0001 C CNN
	1    7850 2700
	1    0    0    -1  
$EndComp
$Comp
L power:GND #PWR052
U 1 1 5C8BBE7F
P 7850 3650
F 0 "#PWR052" H 7850 3400 50  0001 C CNN
F 1 "GND" H 7855 3477 50  0000 C CNN
F 2 "" H 7850 3650 50  0001 C CNN
F 3 "" H 7850 3650 50  0001 C CNN
	1    7850 3650
	1    0    0    -1  
$EndComp
Wire Wire Line
	7850 2700 7850 2800
Wire Wire Line
	7850 3550 7850 3650
Wire Wire Line
	6400 3100 6600 3100
Wire Wire Line
	6600 3900 6400 3900
Wire Wire Line
	6400 4000 6600 4000
Wire Wire Line
	6600 3700 6400 3700
Wire Wire Line
	6400 3800 6600 3800
Wire Wire Line
	5200 4100 5000 4100
NoConn ~ 6400 3500
NoConn ~ 5200 3900
NoConn ~ 5200 3800
$Comp
L Device:R R17
U 1 1 5C8BD0A4
P 4900 2700
F 0 "R17" H 4970 2746 50  0000 L CNN
F 1 "100k" H 4970 2655 50  0000 L CNN
F 2 "Resistor_SMD:R_0603_1608Metric_Pad1.05x0.95mm_HandSolder" V 4830 2700 50  0001 C CNN
F 3 "~" H 4900 2700 50  0001 C CNN
F 4 "CRCW0603100KFKEA" H 4900 2700 50  0001 C CNN "Part Number"
	1    4900 2700
	1    0    0    -1  
$EndComp
Wire Wire Line
	4900 2850 4900 3100
Wire Wire Line
	4900 3100 5200 3100
$Comp
L power:+3.3V #PWR047
U 1 1 5C8BD581
P 4900 2450
F 0 "#PWR047" H 4900 2300 50  0001 C CNN
F 1 "+3.3V" H 4915 2623 50  0000 C CNN
F 2 "" H 4900 2450 50  0001 C CNN
F 3 "" H 4900 2450 50  0001 C CNN
	1    4900 2450
	1    0    0    -1  
$EndComp
$Comp
L Device:C C20
U 1 1 5C8BD5F2
P 1500 2650
F 0 "C20" H 1615 2696 50  0000 L CNN
F 1 "100nF" H 1615 2605 50  0000 L CNN
F 2 "Capacitor_SMD:C_0603_1608Metric_Pad1.05x0.95mm_HandSolder" H 1538 2500 50  0001 C CNN
F 3 "~" H 1500 2650 50  0001 C CNN
F 4 "EMF107B7104KAHT" H 1500 2650 50  0001 C CNN "Part Number"
	1    1500 2650
	1    0    0    -1  
$EndComp
$Comp
L Device:C C21
U 1 1 5C8BD628
P 2100 2650
F 0 "C21" H 2215 2696 50  0000 L CNN
F 1 "100nF" H 2215 2605 50  0000 L CNN
F 2 "Capacitor_SMD:C_0603_1608Metric_Pad1.05x0.95mm_HandSolder" H 2138 2500 50  0001 C CNN
F 3 "~" H 2100 2650 50  0001 C CNN
F 4 "EMF107B7104KAHT" H 2100 2650 50  0001 C CNN "Part Number"
	1    2100 2650
	1    0    0    -1  
$EndComp
$Comp
L Device:C C22
U 1 1 5C8BD649
P 2650 2650
F 0 "C22" H 2765 2696 50  0000 L CNN
F 1 "4.7μF" H 2765 2605 50  0000 L CNN
F 2 "Capacitor_SMD:C_0603_1608Metric_Pad1.05x0.95mm_HandSolder" H 2688 2500 50  0001 C CNN
F 3 "~" H 2650 2650 50  0001 C CNN
F 4 "JMK107BB7475KA-T" H 2650 2650 50  0001 C CNN "Part Number"
	1    2650 2650
	1    0    0    -1  
$EndComp
Wire Wire Line
	5600 2650 5600 2900
Wire Wire Line
	1500 2500 2100 2500
Wire Wire Line
	2650 2850 2100 2850
Wire Wire Line
	1500 2850 1500 2800
Wire Wire Line
	2650 2800 2650 2850
Connection ~ 2100 2500
Wire Wire Line
	2100 2500 2650 2500
Wire Wire Line
	2100 2800 2100 2850
Connection ~ 2100 2850
Wire Wire Line
	2100 2850 1500 2850
Wire Wire Line
	4900 2450 4900 2550
$Comp
L power:+3.3V #PWR045
U 1 1 5C8BE829
P 2100 2350
F 0 "#PWR045" H 2100 2200 50  0001 C CNN
F 1 "+3.3V" H 2115 2523 50  0000 C CNN
F 2 "" H 2100 2350 50  0001 C CNN
F 3 "" H 2100 2350 50  0001 C CNN
	1    2100 2350
	1    0    0    -1  
$EndComp
$Comp
L power:GND #PWR046
U 1 1 5C8BE867
P 2100 3000
F 0 "#PWR046" H 2100 2750 50  0001 C CNN
F 1 "GND" H 2105 2827 50  0000 C CNN
F 2 "" H 2100 3000 50  0001 C CNN
F 3 "" H 2100 3000 50  0001 C CNN
	1    2100 3000
	1    0    0    -1  
$EndComp
Wire Wire Line
	2100 2500 2100 2350
Wire Wire Line
	2100 2850 2100 3000
Wire Wire Line
	5600 4400 5600 4700
$Comp
L Connector_Generic:Conn_01x03 J3
U 1 1 5C8BF97C
P 7450 3400
F 0 "J3" H 7529 3442 50  0000 L CNN
F 1 "RS232" H 7529 3351 50  0000 L CNN
F 2 "Connector_JST:JST_PH_S3B-PH-SM4-TB_1x03-1MP_P2.00mm_Horizontal" H 7450 3400 50  0001 C CNN
F 3 "~" H 7450 3400 50  0001 C CNN
F 4 "S3B-PH-SM4-TB" H 7450 3400 50  0001 C CNN "Part Number"
	1    7450 3400
	1    0    0    -1  
$EndComp
Wire Wire Line
	6400 3300 7250 3300
Wire Wire Line
	7250 3400 6400 3400
$Comp
L power:GND #PWR050
U 1 1 5C8C00ED
P 7250 3500
F 0 "#PWR050" H 7250 3250 50  0001 C CNN
F 1 "GND" H 7255 3327 50  0000 C CNN
F 2 "" H 7250 3500 50  0001 C CNN
F 3 "" H 7250 3500 50  0001 C CNN
	1    7250 3500
	1    0    0    -1  
$EndComp
Text Label 4900 3100 0    50   ~ 0
NRST
Text Label 6600 3200 0    50   ~ 0
SiMP_PSU_Monitor
Wire Wire Line
	5850 2650 5850 2750
Wire Wire Line
	5850 2750 5700 2750
Wire Wire Line
	5700 2750 5700 2900
$Comp
L Device:C C23
U 1 1 5C84CC93
P 2100 4150
F 0 "C23" H 2215 4196 50  0000 L CNN
F 1 "10nF" H 2215 4105 50  0000 L CNN
F 2 "Capacitor_SMD:C_0603_1608Metric_Pad1.05x0.95mm_HandSolder" H 2138 4000 50  0001 C CNN
F 3 "~" H 2100 4150 50  0001 C CNN
F 4 "06036C103MAT2A" H 2100 4150 50  0001 C CNN "Part Number"
	1    2100 4150
	1    0    0    -1  
$EndComp
$Comp
L Device:C C24
U 1 1 5C84CC99
P 2650 4150
F 0 "C24" H 2765 4196 50  0000 L CNN
F 1 "1μF" H 2765 4105 50  0000 L CNN
F 2 "Capacitor_SMD:C_0603_1608Metric_Pad1.05x0.95mm_HandSolder" H 2688 4000 50  0001 C CNN
F 3 "~" H 2650 4150 50  0001 C CNN
F 4 "UMK107ABJ105MAHT" H 2650 4150 50  0001 C CNN "Part Number"
	1    2650 4150
	1    0    0    -1  
$EndComp
Wire Wire Line
	2650 4350 2100 4350
Wire Wire Line
	2650 4300 2650 4350
Connection ~ 2100 4000
Wire Wire Line
	2100 4000 2650 4000
Wire Wire Line
	2100 4300 2100 4350
Connection ~ 2100 4350
$Comp
L power:+3.3V #PWR0106
U 1 1 5C84CCA8
P 2100 3850
F 0 "#PWR0106" H 2100 3700 50  0001 C CNN
F 1 "+3.3V" H 2115 4023 50  0000 C CNN
F 2 "" H 2100 3850 50  0001 C CNN
F 3 "" H 2100 3850 50  0001 C CNN
	1    2100 3850
	1    0    0    -1  
$EndComp
Wire Wire Line
	2100 4000 2100 3850
Wire Wire Line
	2100 4350 2100 4500
$Comp
L power:GND #PWR0109
U 1 1 5C84DA4A
P 2100 4500
F 0 "#PWR0109" H 2100 4250 50  0001 C CNN
F 1 "GND" H 2105 4327 50  0000 C CNN
F 2 "" H 2100 4500 50  0001 C CNN
F 3 "" H 2100 4500 50  0001 C CNN
	1    2100 4500
	1    0    0    -1  
$EndComp
$Comp
L power:+3.3V #PWR0102
U 1 1 5CF8B0C2
P 5600 2650
F 0 "#PWR0102" H 5600 2500 50  0001 C CNN
F 1 "+3.3V" H 5615 2823 50  0000 C CNN
F 2 "" H 5600 2650 50  0001 C CNN
F 3 "" H 5600 2650 50  0001 C CNN
	1    5600 2650
	1    0    0    -1  
$EndComp
$Comp
L power:+3.3V #PWR0103
U 1 1 5CF8BB12
P 5850 2650
F 0 "#PWR0103" H 5850 2500 50  0001 C CNN
F 1 "+3.3V" H 5865 2823 50  0000 C CNN
F 2 "" H 5850 2650 50  0001 C CNN
F 3 "" H 5850 2650 50  0001 C CNN
	1    5850 2650
	1    0    0    -1  
$EndComp
$Comp
L power:GND #PWR0104
U 1 1 5CF8C57A
P 5600 4700
F 0 "#PWR0104" H 5600 4450 50  0001 C CNN
F 1 "GND" H 5605 4527 50  0000 C CNN
F 2 "" H 5600 4700 50  0001 C CNN
F 3 "" H 5600 4700 50  0001 C CNN
	1    5600 4700
	1    0    0    -1  
$EndComp
$Comp
L Device:R R21
U 1 1 5D861235
P 7150 4050
F 0 "R21" H 7220 4096 50  0000 L CNN
F 1 "510" H 7220 4005 50  0000 L CNN
F 2 "Resistor_SMD:R_0603_1608Metric_Pad1.05x0.95mm_HandSolder" V 7080 4050 50  0001 C CNN
F 3 "~" H 7150 4050 50  0001 C CNN
F 4 "RC0603FR-07510RL" H 7150 4050 50  0001 C CNN "Part Number"
	1    7150 4050
	1    0    0    -1  
$EndComp
$Comp
L power:GND #PWR048
U 1 1 5D861930
P 7150 4600
F 0 "#PWR048" H 7150 4350 50  0001 C CNN
F 1 "GND" H 7155 4427 50  0000 C CNN
F 2 "" H 7150 4600 50  0001 C CNN
F 3 "" H 7150 4600 50  0001 C CNN
	1    7150 4600
	1    0    0    -1  
$EndComp
$Comp
L Device:LED D3
U 1 1 5D8623E4
P 7150 4400
F 0 "D3" V 7189 4283 50  0000 R CNN
F 1 "Blue LED" V 7098 4283 50  0000 R CNN
F 2 "LED_SMD:LED_0603_1608Metric_Pad1.05x0.95mm_HandSolder" H 7150 4400 50  0001 C CNN
F 3 "~" H 7150 4400 50  0001 C CNN
F 4 "APT1608VRCXF/A-5MAV" H 7150 4400 50  0001 C CNN "Part Number"
	1    7150 4400
	0    -1   -1   0   
$EndComp
Wire Wire Line
	7150 4200 7150 4250
Wire Wire Line
	7150 4550 7150 4600
NoConn ~ 5200 4200
Wire Wire Line
	7150 3600 6400 3600
Wire Wire Line
	7150 3600 7150 3900
$Comp
L Connector_Generic:Conn_01x06 J4
U 1 1 5D89A647
P 7200 5500
F 0 "J4" H 7280 5492 50  0000 L CNN
F 1 "SWD" H 7280 5401 50  0000 L CNN
F 2 "Connector_JST:JST_SH_SM06B-SRSS-TB_1x06-1MP_P1.00mm_Horizontal" H 7200 5500 50  0001 C CNN
F 3 "~" H 7200 5500 50  0001 C CNN
F 4 "SH_SM06B-SRSS-TB" H 7200 5500 50  0001 C CNN "Part Number"
	1    7200 5500
	1    0    0    -1  
$EndComp
Wire Wire Line
	6400 4200 6400 5400
Wire Wire Line
	6400 5400 7000 5400
Wire Wire Line
	6400 4100 6500 4100
Wire Wire Line
	6500 4100 6500 5600
Text Label 6400 4950 2    50   ~ 0
SWCLK
Text Label 6500 4950 0    50   ~ 0
SWDIO
Wire Wire Line
	6500 5600 7000 5600
Wire Wire Line
	7000 5500 6400 5500
Wire Wire Line
	6400 5500 6400 5950
$Comp
L power:GND #PWR0105
U 1 1 5D8AEF15
P 6400 5950
F 0 "#PWR0105" H 6400 5700 50  0001 C CNN
F 1 "GND" H 6405 5777 50  0000 C CNN
F 2 "" H 6400 5950 50  0001 C CNN
F 3 "" H 6400 5950 50  0001 C CNN
	1    6400 5950
	1    0    0    -1  
$EndComp
$Comp
L power:+3.3V #PWR0107
U 1 1 5D8AF435
P 6850 5300
F 0 "#PWR0107" H 6850 5150 50  0001 C CNN
F 1 "+3.3V" H 6867 5473 50  0000 C CNN
F 2 "" H 6850 5300 50  0001 C CNN
F 3 "" H 6850 5300 50  0001 C CNN
	1    6850 5300
	1    0    0    -1  
$EndComp
Wire Wire Line
	6850 5300 7000 5300
Text Label 7000 5700 2    50   ~ 0
NRST
NoConn ~ 7000 5800
Text Label 6600 3300 0    50   ~ 0
USART_TX
Text Label 6600 3400 0    50   ~ 0
USART_RX
$EndSCHEMATC
