EESchema Schematic File Version 4
EELAYER 30 0
EELAYER END
$Descr A4 11693 8268
encoding utf-8
Sheet 1 5
Title "PQ9ISH Muon Detector"
Date "2019-03-06"
Rev ""
Comp ""
Comment1 ""
Comment2 ""
Comment3 ""
Comment4 ""
$EndDescr
$Sheet
S 5500 2850 850  850 
U 5C800C4C
F0 "PQ CAN" 50
F1 "PQCAN.sch" 50
F2 "CAN1TX" I L 5500 3000 50 
F3 "CAN1RX" I L 5500 3100 50 
F4 "CAN_SHDN" I L 5500 3350 50 
F5 "CAN_STB" I L 5500 3450 50 
$EndSheet
$Sheet
S 2700 1500 950  900 
U 5C80122F
F0 "SiPM" 50
F1 "SiPM.sch" 50
F2 "S_Out" I R 3650 1950 50 
$EndSheet
$Sheet
S 2700 2850 1050 950 
U 5C801234
F0 "power" 50
F1 "power.sch" 50
F2 "SiMP_EN" I R 3750 3350 50 
$EndSheet
$Sheet
S 4250 2850 1000 950 
U 5C801237
F0 "MCU" 50
F1 "MCU.sch" 50
F2 "CAN_RX" I R 5250 3100 50 
F3 "CAN_TX" I R 5250 3000 50 
F4 "CAN_STB" I R 5250 3450 50 
F5 "CAN_SHDN" I R 5250 3350 50 
F6 "SiMP_EN" I L 4250 3350 50 
F7 "SiMP_IN" I L 4250 3100 50 
$EndSheet
Wire Wire Line
	3650 1950 4050 1950
Wire Wire Line
	4050 1950 4050 3100
Wire Wire Line
	4050 3100 4250 3100
Wire Wire Line
	4250 3350 3750 3350
Wire Wire Line
	5250 3000 5500 3000
Wire Wire Line
	5500 3100 5250 3100
Wire Wire Line
	5250 3350 5500 3350
Wire Wire Line
	5500 3450 5250 3450
$EndSCHEMATC
