EESchema Schematic File Version 4
EELAYER 30 0
EELAYER END
$Descr A4 11693 8268
encoding utf-8
Sheet 4 5
Title "DC-DC Power supplies"
Date "2019-03-06"
Rev ""
Comp ""
Comment1 ""
Comment2 ""
Comment3 ""
Comment4 ""
$EndDescr
Text Notes 3750 1300 0    50   ~ 0
VinMin = 3.0V\nVinMax = 14.0V\nVout = 3.3V\nIout = 0.3A
Connection ~ 7450 1650
Wire Wire Line
	7450 1950 7450 1650
Wire Wire Line
	7450 1650 7850 1650
Wire Wire Line
	7850 1950 7850 1650
Wire Wire Line
	7850 2350 7850 2250
Wire Wire Line
	7450 2250 7450 2350
$Comp
L Device:C C?
U 1 1 5B136D58
P 7850 2100
AR Path="/5AEF6EAE/5B136D58" Ref="C?"  Part="1" 
AR Path="/5AF27103/5B136D58" Ref="C?"  Part="1" 
AR Path="/5AF2724B/5B136D58" Ref="C?"  Part="1" 
AR Path="/5AF2724F/5B136D58" Ref="C?"  Part="1" 
AR Path="/5C7A2068/5B136D58" Ref="C?"  Part="1" 
AR Path="/5C801234/5B136D58" Ref="C19"  Part="1" 
F 0 "C19" H 7965 2146 50  0000 L CNN
F 1 "47uF" H 7965 2055 50  0000 L CNN
F 2 "Capacitor_SMD:C_0805_2012Metric_Pad1.15x1.40mm_HandSolder" H 7888 1950 50  0001 C CNN
F 3 "~" H 7850 2100 50  0001 C CNN
F 4 "C2012X5R1A476M125AC" H 7850 2100 50  0001 C CNN "Part Number"
	1    7850 2100
	1    0    0    -1  
$EndComp
$Comp
L Device:C C?
U 1 1 5B136D57
P 7450 2100
AR Path="/5AEF6EAE/5B136D57" Ref="C?"  Part="1" 
AR Path="/5AF27103/5B136D57" Ref="C?"  Part="1" 
AR Path="/5AF2724B/5B136D57" Ref="C?"  Part="1" 
AR Path="/5AF2724F/5B136D57" Ref="C?"  Part="1" 
AR Path="/5C7A2068/5B136D57" Ref="C?"  Part="1" 
AR Path="/5C801234/5B136D57" Ref="C17"  Part="1" 
F 0 "C17" H 7565 2146 50  0000 L CNN
F 1 "10uF" H 7565 2055 50  0000 L CNN
F 2 "Capacitor_SMD:C_0603_1608Metric_Pad1.05x0.95mm_HandSolder" H 7488 1950 50  0001 C CNN
F 3 "~" H 7450 2100 50  0001 C CNN
F 4 "GRM188R60J106ME47D" H 7450 2100 50  0001 C CNN "Part Number"
	1    7450 2100
	1    0    0    -1  
$EndComp
Wire Wire Line
	6300 2300 6300 2350
$Comp
L power:GND #PWR?
U 1 1 5B136D56
P 6300 2350
AR Path="/5AEF6EAE/5B136D56" Ref="#PWR?"  Part="1" 
AR Path="/5AF27103/5B136D56" Ref="#PWR?"  Part="1" 
AR Path="/5AF2724B/5B136D56" Ref="#PWR?"  Part="1" 
AR Path="/5AF2724F/5B136D56" Ref="#PWR?"  Part="1" 
AR Path="/5C7A2068/5B136D56" Ref="#PWR?"  Part="1" 
AR Path="/5C801234/5B136D56" Ref="#PWR038"  Part="1" 
F 0 "#PWR038" H 6300 2100 50  0001 C CNN
F 1 "GND" H 6305 2177 50  0000 C CNN
F 2 "" H 6300 2350 50  0001 C CNN
F 3 "" H 6300 2350 50  0001 C CNN
	1    6300 2350
	1    0    0    -1  
$EndComp
Wire Wire Line
	6650 1650 7000 1650
Connection ~ 6650 1650
Wire Wire Line
	6650 2000 6650 1650
Wire Wire Line
	6650 2600 6650 2300
Wire Wire Line
	6050 2600 6650 2600
Wire Wire Line
	6050 2250 6050 2600
Wire Wire Line
	6050 1950 6300 1950
Wire Wire Line
	6300 1950 6300 2000
$Comp
L Device:R R?
U 1 1 5B136D55
P 6300 2150
AR Path="/5AEF6EAE/5B136D55" Ref="R?"  Part="1" 
AR Path="/5AF27103/5B136D55" Ref="R?"  Part="1" 
AR Path="/5AF2724B/5B136D55" Ref="R?"  Part="1" 
AR Path="/5AF2724F/5B136D55" Ref="R?"  Part="1" 
AR Path="/5C7A2068/5B136D55" Ref="R?"  Part="1" 
AR Path="/5C801234/5B136D55" Ref="R15"  Part="1" 
F 0 "R15" H 6230 2104 50  0000 R CNN
F 1 "100k" H 6230 2195 50  0000 R CNN
F 2 "Resistor_SMD:R_0603_1608Metric_Pad1.05x0.95mm_HandSolder" V 6230 2150 50  0001 C CNN
F 3 "~" H 6300 2150 50  0001 C CNN
F 4 "CRCW0603100KFKEA" H 0   -1800 50  0001 C CNN "Part Number"
F 5 "" H 0   -1800 50  0001 C CNN "Part Number #2"
	1    6300 2150
	-1   0    0    1   
$EndComp
Wire Wire Line
	6300 1650 6650 1650
Connection ~ 6300 1650
Connection ~ 6300 1950
$Comp
L Device:R R?
U 1 1 5B136D54
P 6300 1800
AR Path="/5AEF6EAE/5B136D54" Ref="R?"  Part="1" 
AR Path="/5AF27103/5B136D54" Ref="R?"  Part="1" 
AR Path="/5AF2724B/5B136D54" Ref="R?"  Part="1" 
AR Path="/5AF2724F/5B136D54" Ref="R?"  Part="1" 
AR Path="/5C7A2068/5B136D54" Ref="R?"  Part="1" 
AR Path="/5C801234/5B136D54" Ref="R14"  Part="1" 
F 0 "R14" H 6230 1754 50  0000 R CNN
F 1 "309k" H 6230 1845 50  0000 R CNN
F 2 "Resistor_SMD:R_0603_1608Metric_Pad1.05x0.95mm_HandSolder" V 6230 1800 50  0001 C CNN
F 3 "~" H 6300 1800 50  0001 C CNN
F 4 "CR0603-FX-3093ELF" H 0   -1800 50  0001 C CNN "Part Number"
	1    6300 1800
	-1   0    0    1   
$EndComp
$Comp
L Device:R R?
U 1 1 5AEE2BFB
P 6650 2150
AR Path="/5AEF6EAE/5AEE2BFB" Ref="R?"  Part="1" 
AR Path="/5AF27103/5AEE2BFB" Ref="R?"  Part="1" 
AR Path="/5AF2724B/5AEE2BFB" Ref="R?"  Part="1" 
AR Path="/5AF2724F/5AEE2BFB" Ref="R?"  Part="1" 
AR Path="/5C7A2068/5AEE2BFB" Ref="R?"  Part="1" 
AR Path="/5C801234/5AEE2BFB" Ref="R16"  Part="1" 
F 0 "R16" H 6580 2104 50  0000 R CNN
F 1 "100k" H 6580 2195 50  0000 R CNN
F 2 "Resistor_SMD:R_0603_1608Metric_Pad1.05x0.95mm_HandSolder" V 6580 2150 50  0001 C CNN
F 3 "~" H 6650 2150 50  0001 C CNN
F 4 "CRCW0603100KFKEA" H 0   -1800 50  0001 C CNN "Part Number"
	1    6650 2150
	-1   0    0    1   
$EndComp
$Comp
L power:GND #PWR?
U 1 1 5AEE20D5
P 5250 2350
AR Path="/5AEF6EAE/5AEE20D5" Ref="#PWR?"  Part="1" 
AR Path="/5AF27103/5AEE20D5" Ref="#PWR?"  Part="1" 
AR Path="/5AF2724B/5AEE20D5" Ref="#PWR?"  Part="1" 
AR Path="/5AF2724F/5AEE20D5" Ref="#PWR?"  Part="1" 
AR Path="/5C7A2068/5AEE20D5" Ref="#PWR?"  Part="1" 
AR Path="/5C801234/5AEE20D5" Ref="#PWR032"  Part="1" 
F 0 "#PWR032" H 5250 2100 50  0001 C CNN
F 1 "GND" H 5255 2177 50  0000 C CNN
F 2 "" H 5250 2350 50  0001 C CNN
F 3 "" H 5250 2350 50  0001 C CNN
	1    5250 2350
	1    0    0    -1  
$EndComp
Wire Wire Line
	5650 2550 5650 2650
Wire Wire Line
	4650 2350 4650 2400
$Comp
L power:GND #PWR?
U 1 1 5AEE0F73
P 4650 2400
AR Path="/5AEF6EAE/5AEE0F73" Ref="#PWR?"  Part="1" 
AR Path="/5AF27103/5AEE0F73" Ref="#PWR?"  Part="1" 
AR Path="/5AF2724B/5AEE0F73" Ref="#PWR?"  Part="1" 
AR Path="/5AF2724F/5AEE0F73" Ref="#PWR?"  Part="1" 
AR Path="/5C7A2068/5AEE0F73" Ref="#PWR?"  Part="1" 
AR Path="/5C801234/5AEE0F73" Ref="#PWR030"  Part="1" 
F 0 "#PWR030" H 4650 2150 50  0001 C CNN
F 1 "GND" H 4655 2227 50  0000 C CNN
F 2 "" H 4650 2400 50  0001 C CNN
F 3 "" H 4650 2400 50  0001 C CNN
	1    4650 2400
	1    0    0    -1  
$EndComp
Wire Wire Line
	4650 2050 5250 2050
$Comp
L Device:C C?
U 1 1 5AEDFBC2
P 4650 2200
AR Path="/5AEF6EAE/5AEDFBC2" Ref="C?"  Part="1" 
AR Path="/5AF27103/5AEDFBC2" Ref="C?"  Part="1" 
AR Path="/5AF2724B/5AEDFBC2" Ref="C?"  Part="1" 
AR Path="/5AF2724F/5AEDFBC2" Ref="C?"  Part="1" 
AR Path="/5C7A2068/5AEDFBC2" Ref="C?"  Part="1" 
AR Path="/5C801234/5AEDFBC2" Ref="C15"  Part="1" 
F 0 "C15" H 4765 2246 50  0000 L CNN
F 1 "100nF" H 4765 2155 50  0000 L CNN
F 2 "Capacitor_SMD:C_0603_1608Metric_Pad1.05x0.95mm_HandSolder" H 4688 2050 50  0001 C CNN
F 3 "~" H 4650 2200 50  0001 C CNN
F 4 "VJ0603V104ZXQPW1BC" H 4650 2200 50  0001 C CNN "Part Number"
	1    4650 2200
	1    0    0    -1  
$EndComp
$Comp
L power:GND #PWR?
U 1 1 5B136D4F
P 5650 2650
AR Path="/5AEF6EAE/5B136D4F" Ref="#PWR?"  Part="1" 
AR Path="/5AF27103/5B136D4F" Ref="#PWR?"  Part="1" 
AR Path="/5AF2724B/5B136D4F" Ref="#PWR?"  Part="1" 
AR Path="/5AF2724F/5B136D4F" Ref="#PWR?"  Part="1" 
AR Path="/5C7A2068/5B136D4F" Ref="#PWR?"  Part="1" 
AR Path="/5C801234/5B136D4F" Ref="#PWR034"  Part="1" 
F 0 "#PWR034" H 5650 2400 50  0001 C CNN
F 1 "GND" H 5655 2477 50  0000 C CNN
F 2 "" H 5650 2650 50  0001 C CNN
F 3 "" H 5650 2650 50  0001 C CNN
	1    5650 2650
	1    0    0    -1  
$EndComp
$Comp
L Device:C C?
U 1 1 5AEDF595
P 3700 2200
AR Path="/5AEF6EAE/5AEDF595" Ref="C?"  Part="1" 
AR Path="/5AF27103/5AEDF595" Ref="C?"  Part="1" 
AR Path="/5AF2724B/5AEDF595" Ref="C?"  Part="1" 
AR Path="/5AF2724F/5AEDF595" Ref="C?"  Part="1" 
AR Path="/5C7A2068/5AEDF595" Ref="C?"  Part="1" 
AR Path="/5C801234/5AEDF595" Ref="C12"  Part="1" 
F 0 "C12" H 3815 2246 50  0000 L CNN
F 1 "22uF" H 3815 2155 50  0000 L CNN
F 2 "Capacitor_SMD:C_0805_2012Metric_Pad1.15x1.40mm_HandSolder" H 3738 2050 50  0001 C CNN
F 3 "~" H 3700 2200 50  0001 C CNN
F 4 "C2012X5R1V226M125AC" H 3700 2200 50  0001 C CNN "Part Number"
	1    3700 2200
	1    0    0    -1  
$EndComp
$Comp
L Device:R R?
U 1 1 5AEDF4B6
P 4800 1950
AR Path="/5AEF6EAE/5AEDF4B6" Ref="R?"  Part="1" 
AR Path="/5AF27103/5AEDF4B6" Ref="R?"  Part="1" 
AR Path="/5AF2724B/5AEDF4B6" Ref="R?"  Part="1" 
AR Path="/5AF2724F/5AEDF4B6" Ref="R?"  Part="1" 
AR Path="/5C7A2068/5AEDF4B6" Ref="R?"  Part="1" 
AR Path="/5C801234/5AEDF4B6" Ref="R10"  Part="1" 
F 0 "R10" V 4593 1950 50  0000 C CNN
F 1 "10k" V 4684 1950 50  0000 C CNN
F 2 "Resistor_SMD:R_0603_1608Metric_Pad1.05x0.95mm_HandSolder" V 4730 1950 50  0001 C CNN
F 3 "~" H 4800 1950 50  0001 C CNN
F 4 "RE0603BRE0710KL" H 0   -1750 50  0001 C CNN "Part Number"
	1    4800 1950
	0    1    1    0   
$EndComp
Wire Wire Line
	5250 1150 5250 1550
Wire Wire Line
	5500 1150 5250 1150
Wire Wire Line
	6050 1150 6050 1550
Wire Wire Line
	5800 1150 6050 1150
$Comp
L Device:L_Core_Ferrite L?
U 1 1 5AEDF1CF
P 5650 1150
AR Path="/5AEF6EAE/5AEDF1CF" Ref="L?"  Part="1" 
AR Path="/5AF27103/5AEDF1CF" Ref="L?"  Part="1" 
AR Path="/5AF2724B/5AEDF1CF" Ref="L?"  Part="1" 
AR Path="/5AF2724F/5AEDF1CF" Ref="L?"  Part="1" 
AR Path="/5C7A2068/5AEDF1CF" Ref="L?"  Part="1" 
AR Path="/5C801234/5AEDF1CF" Ref="L3"  Part="1" 
F 0 "L3" V 5875 1150 50  0000 C CNN
F 1 "1uH" V 5784 1150 50  0000 C CNN
F 2 "Inductor_SMD:L_Coilcraft_XxL4020" H 5650 1150 50  0001 C CNN
F 3 "~" H 5650 1150 50  0001 C CNN
F 4 "XFL4020-152MEB" V 5650 1150 50  0001 C CNN "Part Number"
	1    5650 1150
	0    -1   -1   0   
$EndComp
$Comp
L lsf-kicad:TPS63070RNM U?
U 1 1 5AEBA648
P 5650 1950
AR Path="/5AEF6EAE/5AEBA648" Ref="U?"  Part="1" 
AR Path="/5AF27103/5AEBA648" Ref="U?"  Part="1" 
AR Path="/5AF2724B/5AEBA648" Ref="U?"  Part="1" 
AR Path="/5AF2724F/5AEBA648" Ref="U?"  Part="1" 
AR Path="/5C7A2068/5AEBA648" Ref="U?"  Part="1" 
AR Path="/5C801234/5AEBA648" Ref="U4"  Part="1" 
F 0 "U4" H 5850 2500 50  0000 C CNN
F 1 "TPS63070RNM" H 5650 2150 50  0000 C CNN
F 2 "lsf-kicad-lib:VQFN-15_2.5x3_Pitch0.5mm" H 5650 1950 50  0001 C CNN
F 3 "http://www.ti.com/lit/ds/symlink/tps63070.pdf" H 5650 1950 50  0001 C CNN
F 4 "TPS63070RNM" H 0   -1800 50  0001 C CNN "Part Number"
	1    5650 1950
	1    0    0    -1  
$EndComp
$Comp
L power:GND #PWR?
U 1 1 5B136D5B
P 6150 2200
AR Path="/5AEF6EAE/5B136D5B" Ref="#PWR?"  Part="1" 
AR Path="/5AF27103/5B136D5B" Ref="#PWR?"  Part="1" 
AR Path="/5AF2724B/5B136D5B" Ref="#PWR?"  Part="1" 
AR Path="/5AF2724F/5B136D5B" Ref="#PWR?"  Part="1" 
AR Path="/5C7A2068/5B136D5B" Ref="#PWR?"  Part="1" 
AR Path="/5C801234/5B136D5B" Ref="#PWR037"  Part="1" 
F 0 "#PWR037" H 6150 1950 50  0001 C CNN
F 1 "GND" H 6155 2027 50  0000 C CNN
F 2 "" H 6150 2200 50  0001 C CNN
F 3 "" H 6150 2200 50  0001 C CNN
	1    6150 2200
	1    0    0    -1  
$EndComp
Wire Wire Line
	6050 2050 6150 2050
Wire Wire Line
	6150 2050 6150 2200
Wire Wire Line
	6050 1650 6300 1650
Wire Wire Line
	5250 2250 5250 2350
Wire Wire Line
	4950 1950 5000 1950
Wire Wire Line
	5000 2150 5000 1950
Connection ~ 5000 1950
Wire Wire Line
	5000 1950 5250 1950
Text Label 5250 1300 0    50   ~ 0
L1
Text Label 6050 1300 0    50   ~ 0
L2
$Comp
L Device:C C13
U 1 1 5B0D63C5
P 4150 2200
F 0 "C13" H 4035 2154 50  0000 R CNN
F 1 "100pF" H 4035 2245 50  0000 R CNN
F 2 "Capacitor_SMD:C_0603_1608Metric_Pad1.05x0.95mm_HandSolder" H 4188 2050 50  0001 C CNN
F 3 "~" H 4150 2200 50  0001 C CNN
F 4 "0603YC101K4T2A" H 0   -1750 50  0001 C CNN "Part Number"
	1    4150 2200
	-1   0    0    1   
$EndComp
$Comp
L Device:C C16
U 1 1 5B0D6366
P 7000 2100
F 0 "C16" H 6885 2054 50  0000 R CNN
F 1 "100pF" H 6885 2145 50  0000 R CNN
F 2 "Capacitor_SMD:C_0603_1608Metric_Pad1.05x0.95mm_HandSolder" H 7038 1950 50  0001 C CNN
F 3 "~" H 7000 2100 50  0001 C CNN
F 4 "0603YC101K4T2A" H 0   -1800 50  0001 C CNN "Part Number"
	1    7000 2100
	-1   0    0    1   
$EndComp
Wire Wire Line
	3700 1650 4150 1650
Wire Wire Line
	3700 1650 3700 2050
Wire Wire Line
	4150 2050 4150 1650
Connection ~ 4150 1650
Wire Wire Line
	4650 1950 4650 1650
Wire Wire Line
	4150 1650 4500 1650
Connection ~ 4650 1650
Wire Wire Line
	4650 1650 4950 1650
Wire Wire Line
	7000 2250 7000 2350
Wire Wire Line
	7000 1950 7000 1650
Connection ~ 7000 1650
Wire Wire Line
	7000 1650 7450 1650
Text Label 6100 1950 0    50   ~ 0
FB
Text Label 6100 2050 0    50   ~ 0
FB2
Text Label 5050 2050 0    50   ~ 0
VAUX
Text Label 6450 2600 0    50   ~ 0
PG
Wire Wire Line
	5750 2900 5750 2550
Wire Wire Line
	4150 2400 4150 2350
$Comp
L Device:Net-Tie_2 NT1
U 1 1 5B0F2E2C
P 6700 3250
F 0 "NT1" H 6700 3428 50  0000 C CNN
F 1 "GND" H 6700 3337 50  0000 C CNN
F 2 "NetTie:NetTie-2_SMD_Pad0.5mm" H 6700 3250 50  0001 C CNN
F 3 "~" H 6700 3250 50  0001 C CNN
	1    6700 3250
	1    0    0    -1  
$EndComp
$Comp
L power:GND #PWR039
U 1 1 5B0F3393
P 6550 3250
F 0 "#PWR039" H 6550 3000 50  0001 C CNN
F 1 "GND" H 6555 3077 50  0000 C CNN
F 2 "" H 6550 3250 50  0001 C CNN
F 3 "" H 6550 3250 50  0001 C CNN
	1    6550 3250
	1    0    0    -1  
$EndComp
Wire Wire Line
	6550 3250 6600 3250
Wire Wire Line
	6800 3250 6850 3250
$Comp
L power:GNDA #PWR027
U 1 1 5B15C5E4
P 3700 2400
F 0 "#PWR027" H 3700 2150 50  0001 C CNN
F 1 "GNDA" H 3705 2227 50  0000 C CNN
F 2 "" H 3700 2400 50  0001 C CNN
F 3 "" H 3700 2400 50  0001 C CNN
	1    3700 2400
	1    0    0    -1  
$EndComp
$Comp
L power:GNDA #PWR028
U 1 1 5B15C803
P 4150 2400
F 0 "#PWR028" H 4150 2150 50  0001 C CNN
F 1 "GNDA" H 4155 2227 50  0000 C CNN
F 2 "" H 4150 2400 50  0001 C CNN
F 3 "" H 4150 2400 50  0001 C CNN
	1    4150 2400
	1    0    0    -1  
$EndComp
$Comp
L power:GNDA #PWR041
U 1 1 5B15C82C
P 7000 2350
F 0 "#PWR041" H 7000 2100 50  0001 C CNN
F 1 "GNDA" H 7005 2177 50  0000 C CNN
F 2 "" H 7000 2350 50  0001 C CNN
F 3 "" H 7000 2350 50  0001 C CNN
	1    7000 2350
	1    0    0    -1  
$EndComp
$Comp
L power:GNDA #PWR042
U 1 1 5B15C909
P 7450 2350
F 0 "#PWR042" H 7450 2100 50  0001 C CNN
F 1 "GNDA" H 7455 2177 50  0000 C CNN
F 2 "" H 7450 2350 50  0001 C CNN
F 3 "" H 7450 2350 50  0001 C CNN
	1    7450 2350
	1    0    0    -1  
$EndComp
$Comp
L power:GNDA #PWR044
U 1 1 5B15C932
P 7850 2350
F 0 "#PWR044" H 7850 2100 50  0001 C CNN
F 1 "GNDA" H 7855 2177 50  0000 C CNN
F 2 "" H 7850 2350 50  0001 C CNN
F 3 "" H 7850 2350 50  0001 C CNN
	1    7850 2350
	1    0    0    -1  
$EndComp
$Comp
L power:GNDA #PWR040
U 1 1 5B15CB5A
P 6850 3250
F 0 "#PWR040" H 6850 3000 50  0001 C CNN
F 1 "GNDA" H 6855 3077 50  0000 C CNN
F 2 "" H 6850 3250 50  0001 C CNN
F 3 "" H 6850 3250 50  0001 C CNN
	1    6850 3250
	1    0    0    -1  
$EndComp
$Comp
L power:GNDA #PWR036
U 1 1 5B15CDDC
P 5750 2900
F 0 "#PWR036" H 5750 2650 50  0001 C CNN
F 1 "GNDA" H 5755 2727 50  0000 C CNN
F 2 "" H 5750 2900 50  0001 C CNN
F 3 "" H 5750 2900 50  0001 C CNN
	1    5750 2900
	1    0    0    -1  
$EndComp
$Comp
L power:PWR_FLAG #FLG01
U 1 1 5B17BE17
P 4500 1650
F 0 "#FLG01" H 4500 1725 50  0001 C CNN
F 1 "PWR_FLAG" H 4500 1824 50  0000 C CNN
F 2 "" H 4500 1650 50  0001 C CNN
F 3 "~" H 4500 1650 50  0001 C CNN
	1    4500 1650
	1    0    0    -1  
$EndComp
Connection ~ 4500 1650
Wire Wire Line
	4500 1650 4650 1650
Wire Wire Line
	5650 1350 4950 1350
Wire Wire Line
	4950 1350 4950 1650
Text GLabel 3200 1650 0    50   Input ~ 0
Vin
$Comp
L power:+3.3V #PWR043
U 1 1 5C7AAA91
P 7850 1650
F 0 "#PWR043" H 7850 1500 50  0001 C CNN
F 1 "+3.3V" H 7865 1823 50  0000 C CNN
F 2 "" H 7850 1650 50  0001 C CNN
F 3 "" H 7850 1650 50  0001 C CNN
	1    7850 1650
	1    0    0    -1  
$EndComp
Connection ~ 7850 1650
Wire Wire Line
	5000 2150 5250 2150
Wire Wire Line
	3700 2350 3700 2400
$Comp
L Device:C C?
U 1 1 5C7B3519
P 3250 2200
AR Path="/5AEF6EAE/5C7B3519" Ref="C?"  Part="1" 
AR Path="/5AF27103/5C7B3519" Ref="C?"  Part="1" 
AR Path="/5AF2724B/5C7B3519" Ref="C?"  Part="1" 
AR Path="/5AF2724F/5C7B3519" Ref="C?"  Part="1" 
AR Path="/5C7A2068/5C7B3519" Ref="C?"  Part="1" 
AR Path="/5C801234/5C7B3519" Ref="C27"  Part="1" 
F 0 "C27" H 3365 2246 50  0000 L CNN
F 1 "22uF" H 3365 2155 50  0000 L CNN
F 2 "Capacitor_SMD:C_0805_2012Metric_Pad1.15x1.40mm_HandSolder" H 3288 2050 50  0001 C CNN
F 3 "~" H 3250 2200 50  0001 C CNN
F 4 "C2012X5R1V226M125AC" H 3250 2200 50  0001 C CNN "Part Number"
	1    3250 2200
	1    0    0    -1  
$EndComp
Wire Wire Line
	3250 1650 3250 2050
$Comp
L power:GNDA #PWR025
U 1 1 5C7B3521
P 3250 2400
F 0 "#PWR025" H 3250 2150 50  0001 C CNN
F 1 "GNDA" H 3255 2227 50  0000 C CNN
F 2 "" H 3250 2400 50  0001 C CNN
F 3 "" H 3250 2400 50  0001 C CNN
	1    3250 2400
	1    0    0    -1  
$EndComp
Wire Wire Line
	3250 2350 3250 2400
Wire Wire Line
	3200 1650 3250 1650
Connection ~ 3700 1650
Connection ~ 3250 1650
Wire Wire Line
	3250 1650 3700 1650
$Comp
L lsf-kicad:LT3461AES6TRPBF U1
U 1 1 5C877030
P 3300 5400
AR Path="/5C877030" Ref="U1"  Part="1" 
AR Path="/5C801234/5C877030" Ref="U1"  Part="1" 
F 0 "U1" H 3400 5950 50  0000 C CNN
F 1 "LT3461AES6TRPBF" H 3700 5850 50  0000 C CNN
F 2 "Package_TO_SOT_SMD:TSOT-23-6" H 3700 4700 50  0001 L BNN
F 3 "https://www.analog.com/media/en/technical-documentation/data-sheets/3461afa.pdf" H 4100 6150 50  0001 L BNN
F 4 "LT3461AES6TRPBF" H 0   0   50  0001 C CNN "Part Number"
	1    3300 5400
	1    0    0    -1  
$EndComp
$Comp
L Device:L L1
U 1 1 5C877C26
P 3050 4800
F 0 "L1" V 3240 4800 50  0000 C CNN
F 1 "47uH" V 3149 4800 50  0000 C CNN
F 2 "Inductor_SMD:L_1210_3225Metric" H 3050 4800 50  0001 C CNN
F 3 "~" H 3050 4800 50  0001 C CNN
F 4 "LQH32CN470K53L" H 0   0   50  0001 C CNN "Part Number"
	1    3050 4800
	0    -1   -1   0   
$EndComp
Wire Wire Line
	3200 4800 3300 4800
$Comp
L Device:L L2
U 1 1 5C879B2C
P 5300 5300
F 0 "L2" V 5490 5300 50  0000 C CNN
F 1 "L" V 5399 5300 50  0000 C CNN
F 2 "Inductor_SMD:L_0805_2012Metric" H 5300 5300 50  0001 C CNN
F 3 "~" H 5300 5300 50  0001 C CNN
F 4 "BK2125LM252-T" H 0   0   50  0001 C CNN "Part Number"
	1    5300 5300
	0    -1   -1   0   
$EndComp
$Comp
L Device:R R2
U 1 1 5C879FBC
P 4350 5550
F 0 "R2" H 4420 5596 50  0000 L CNN
F 1 "226k" H 4420 5505 50  0000 L CNN
F 2 "Resistor_SMD:R_0603_1608Metric_Pad1.05x0.95mm_HandSolder" V 4280 5550 50  0001 C CNN
F 3 "~" H 4350 5550 50  0001 C CNN
F 4 "CR0603-FX-2263ELF" H 0   0   50  0001 C CNN "Part Number"
	1    4350 5550
	1    0    0    -1  
$EndComp
$Comp
L Device:R R1
U 1 1 5C87A20C
P 4350 6050
F 0 "R1" H 4420 6096 50  0000 L CNN
F 1 "10k" H 4420 6005 50  0000 L CNN
F 2 "Resistor_SMD:R_0603_1608Metric_Pad1.05x0.95mm_HandSolder" V 4280 6050 50  0001 C CNN
F 3 "~" H 4350 6050 50  0001 C CNN
F 4 "RE0603BRE0710KL" H 0   0   50  0001 C CNN "Part Number"
	1    4350 6050
	1    0    0    -1  
$EndComp
$Comp
L Device:C C18
U 1 1 5C87AD55
P 5450 5550
F 0 "C18" H 5565 5596 50  0000 L CNN
F 1 "1uF" H 5565 5505 50  0000 L CNN
F 2 "Capacitor_SMD:C_0603_1608Metric_Pad1.05x0.95mm_HandSolder" H 5488 5400 50  0001 C CNN
F 3 "~" H 5450 5550 50  0001 C CNN
F 4 "UMK107ABJ105MAHT" H 5450 5550 50  0001 C CNN "Part Number"
	1    5450 5550
	1    0    0    -1  
$EndComp
$Comp
L Device:C C2
U 1 1 5C87ADB7
P 5100 5550
F 0 "C2" H 5215 5596 50  0000 L CNN
F 1 "0.47uF" H 5215 5505 50  0000 L CNN
F 2 "Capacitor_SMD:C_0603_1608Metric_Pad1.05x0.95mm_HandSolder" H 5138 5400 50  0001 C CNN
F 3 "~" H 5100 5550 50  0001 C CNN
F 4 "C0603C474K5RACTU" H 5100 5550 50  0001 C CNN "Part Number"
	1    5100 5550
	1    0    0    -1  
$EndComp
Wire Wire Line
	5150 5300 5100 5300
Wire Wire Line
	2900 4800 2900 5300
Wire Wire Line
	5100 5400 5100 5300
Connection ~ 5100 5300
Wire Wire Line
	5100 5300 4650 5300
Wire Wire Line
	5450 5300 5450 5400
Wire Wire Line
	4650 5400 4650 5300
Connection ~ 4650 5300
Wire Wire Line
	4650 5300 4350 5300
Wire Wire Line
	4350 5400 4350 5300
Connection ~ 4350 5300
Wire Wire Line
	4350 5300 3700 5300
Wire Wire Line
	4100 5800 4100 6250
Wire Wire Line
	4100 6250 2900 6250
Wire Wire Line
	2900 6250 2900 5500
$Comp
L power:GND #PWR026
U 1 1 5C886290
P 3300 5950
F 0 "#PWR026" H 3300 5700 50  0001 C CNN
F 1 "GND" H 3305 5777 50  0000 C CNN
F 2 "" H 3300 5950 50  0001 C CNN
F 3 "" H 3300 5950 50  0001 C CNN
	1    3300 5950
	1    0    0    -1  
$EndComp
$Comp
L power:GND #PWR029
U 1 1 5C8862CE
P 4350 6250
F 0 "#PWR029" H 4350 6000 50  0001 C CNN
F 1 "GND" H 4355 6077 50  0000 C CNN
F 2 "" H 4350 6250 50  0001 C CNN
F 3 "" H 4350 6250 50  0001 C CNN
	1    4350 6250
	1    0    0    -1  
$EndComp
$Comp
L power:GND #PWR031
U 1 1 5C886874
P 5100 5850
F 0 "#PWR031" H 5100 5600 50  0001 C CNN
F 1 "GND" H 5105 5677 50  0000 C CNN
F 2 "" H 5100 5850 50  0001 C CNN
F 3 "" H 5100 5850 50  0001 C CNN
	1    5100 5850
	1    0    0    -1  
$EndComp
$Comp
L power:GND #PWR033
U 1 1 5C8868B0
P 5450 5850
F 0 "#PWR033" H 5450 5600 50  0001 C CNN
F 1 "GND" H 5455 5677 50  0000 C CNN
F 2 "" H 5450 5850 50  0001 C CNN
F 3 "" H 5450 5850 50  0001 C CNN
	1    5450 5850
	1    0    0    -1  
$EndComp
Wire Wire Line
	5450 5700 5450 5850
Wire Wire Line
	5100 5850 5100 5700
Wire Wire Line
	4350 6200 4350 6250
Wire Wire Line
	3300 5800 3300 5950
$Comp
L power:+28V #PWR035
U 1 1 5C88F988
P 5650 5300
F 0 "#PWR035" H 5650 5150 50  0001 C CNN
F 1 "+28V" H 5665 5473 50  0000 C CNN
F 2 "" H 5900 5350 50  0001 C CNN
F 3 "" H 5900 5350 50  0001 C CNN
	1    5650 5300
	1    0    0    -1  
$EndComp
Wire Wire Line
	5650 5300 5450 5300
Connection ~ 5450 5300
Text HLabel 3800 5500 2    50   Input ~ 0
SiMP_EN
$Comp
L Device:C C1
U 1 1 5C87A273
P 4650 5550
F 0 "C1" H 4765 5596 50  0000 L CNN
F 1 "22pF" H 4765 5505 50  0000 L CNN
F 2 "Capacitor_SMD:C_0603_1608Metric_Pad1.05x0.95mm_HandSolder" H 4688 5400 50  0001 C CNN
F 3 "~" H 4650 5550 50  0001 C CNN
F 4 "C0603C220J5GACTU" H 4650 5550 50  0001 C CNN "Part Number"
	1    4650 5550
	1    0    0    -1  
$EndComp
Wire Wire Line
	4350 5700 4350 5800
Wire Wire Line
	4100 5800 4350 5800
Connection ~ 4350 5800
Wire Wire Line
	4350 5800 4350 5900
Wire Wire Line
	4350 5800 4650 5800
Wire Wire Line
	4650 5800 4650 5700
Wire Wire Line
	3700 5500 3750 5500
Wire Wire Line
	3300 4800 3300 5000
Text GLabel 3300 4050 1    50   Input ~ 0
Vin
$Comp
L power:PWR_FLAG #FLG0101
U 1 1 5CF90482
P 6850 3250
F 0 "#FLG0101" H 6850 3325 50  0001 C CNN
F 1 "PWR_FLAG" H 6918 3292 50  0000 L CNN
F 2 "" H 6850 3250 50  0001 C CNN
F 3 "~" H 6850 3250 50  0001 C CNN
	1    6850 3250
	1    0    0    -1  
$EndComp
Connection ~ 6850 3250
$Comp
L power:PWR_FLAG #FLG0103
U 1 1 5CF94F19
P 5650 5300
F 0 "#FLG0103" H 5650 5375 50  0001 C CNN
F 1 "PWR_FLAG" V 5650 5428 50  0000 L CNN
F 2 "" H 5650 5300 50  0001 C CNN
F 3 "~" H 5650 5300 50  0001 C CNN
	1    5650 5300
	0    1    1    0   
$EndComp
Connection ~ 5650 5300
$Comp
L power:PWR_FLAG #FLG0104
U 1 1 5CF9E395
P 6550 3250
F 0 "#FLG0104" H 6550 3325 50  0001 C CNN
F 1 "PWR_FLAG" H 6483 3292 50  0000 R CNN
F 2 "" H 6550 3250 50  0001 C CNN
F 3 "~" H 6550 3250 50  0001 C CNN
	1    6550 3250
	1    0    0    -1  
$EndComp
Wire Wire Line
	3300 4800 3300 4150
Connection ~ 3300 4800
$Comp
L Device:C C3
U 1 1 5D859F7C
P 3600 4350
F 0 "C3" H 3715 4396 50  0000 L CNN
F 1 "1uF" H 3715 4305 50  0000 L CNN
F 2 "Capacitor_SMD:C_0603_1608Metric_Pad1.05x0.95mm_HandSolder" H 3638 4200 50  0001 C CNN
F 3 "~" H 3600 4350 50  0001 C CNN
F 4 "UMK107ABJ105MAHT" H 3600 4350 50  0001 C CNN "Part Number"
	1    3600 4350
	1    0    0    -1  
$EndComp
$Comp
L power:GND #PWR019
U 1 1 5D85A58E
P 3600 4600
F 0 "#PWR019" H 3600 4350 50  0001 C CNN
F 1 "GND" H 3605 4427 50  0000 C CNN
F 2 "" H 3600 4600 50  0001 C CNN
F 3 "" H 3600 4600 50  0001 C CNN
	1    3600 4600
	1    0    0    -1  
$EndComp
Wire Wire Line
	3600 4600 3600 4500
Wire Wire Line
	3600 4150 3300 4150
Wire Wire Line
	3600 4200 3600 4150
Connection ~ 3300 4150
Wire Wire Line
	3300 4150 3300 4050
$Comp
L Device:R R22
U 1 1 5D8E5C1E
P 3750 5650
F 0 "R22" H 3820 5696 50  0000 L CNN
F 1 "10k" H 3820 5605 50  0000 L CNN
F 2 "Resistor_SMD:R_0603_1608Metric_Pad1.05x0.95mm_HandSolder" V 3680 5650 50  0001 C CNN
F 3 "~" H 3750 5650 50  0001 C CNN
F 4 "RE0603BRE0710KL" H 3750 5650 50  0001 C CNN "Part Number"
	1    3750 5650
	1    0    0    -1  
$EndComp
Connection ~ 3750 5500
Wire Wire Line
	3750 5500 3800 5500
$Comp
L power:GND #PWR049
U 1 1 5D8E649D
P 3750 5800
F 0 "#PWR049" H 3750 5550 50  0001 C CNN
F 1 "GND" H 3755 5627 50  0000 C CNN
F 2 "" H 3750 5800 50  0001 C CNN
F 3 "" H 3750 5800 50  0001 C CNN
	1    3750 5800
	1    0    0    -1  
$EndComp
$EndSCHEMATC
