EESchema Schematic File Version 4
EELAYER 30 0
EELAYER END
$Descr A4 11693 8268
encoding utf-8
Sheet 2 5
Title ""
Date ""
Rev ""
Comp ""
Comment1 ""
Comment2 ""
Comment3 ""
Comment4 ""
$EndDescr
Text HLabel 4200 3800 0    60   Input ~ 0
CAN1TX
Text HLabel 4200 3900 0    60   Input ~ 0
CAN1RX
$Comp
L power:GND #PWR03
U 1 1 5A7B673E
P 5650 4400
F 0 "#PWR03" H 5650 4150 50  0001 C CNN
F 1 "GND" H 5650 4250 50  0000 C CNN
F 2 "" H 5650 4400 50  0001 C CNN
F 3 "" H 5650 4400 50  0001 C CNN
	1    5650 4400
	1    0    0    -1  
$EndComp
$Comp
L Device:R R8
U 1 1 5A7BB786
P 4700 4400
F 0 "R8" V 4780 4400 50  0000 C CNN
F 1 "1K" V 4700 4400 50  0000 C CNN
F 2 "Resistor_SMD:R_0603_1608Metric_Pad1.05x0.95mm_HandSolder" V 4630 4400 50  0001 C CNN
F 3 "" H 4700 4400 50  0001 C CNN
F 4 "CRCW06031K00FKEA" H -300 1300 50  0001 C CNN "Part Number"
	1    4700 4400
	1    0    0    -1  
$EndComp
$Comp
L power:GND #PWR01
U 1 1 5A7BB85E
P 4700 4650
F 0 "#PWR01" H 4700 4400 50  0001 C CNN
F 1 "GND" H 4700 4500 50  0000 C CNN
F 2 "" H 4700 4650 50  0001 C CNN
F 3 "" H 4700 4650 50  0001 C CNN
	1    4700 4650
	1    0    0    -1  
$EndComp
Text HLabel 4200 4100 0    60   Input ~ 0
CAN_SHDN
Wire Wire Line
	5650 2600 5650 3150
Text Label 6300 4100 0    50   ~ 0
D+
Text Label 6300 3900 0    50   ~ 0
D-
NoConn ~ 7050 3900
Wire Wire Line
	4200 4200 4700 4200
Wire Wire Line
	4700 4550 4700 4650
Wire Wire Line
	4700 4200 4700 4250
Connection ~ 4700 4200
Wire Wire Line
	4700 4200 5150 4200
$Comp
L power:+3.3V #PWR02
U 1 1 5AEEEC55
P 5650 2150
F 0 "#PWR02" H 5650 2000 50  0001 C CNN
F 1 "+3.3V" H 5665 2323 50  0000 C CNN
F 2 "" H 5650 2150 50  0001 C CNN
F 3 "" H 5650 2150 50  0001 C CNN
	1    5650 2150
	1    0    0    -1  
$EndComp
Wire Wire Line
	4200 3800 5150 3800
Wire Wire Line
	4200 3900 5150 3900
$Comp
L lsf-kicad:PQ9-Connector PQ9
U 1 1 59C29771
P 7450 4300
AR Path="/59C29771" Ref="PQ9"  Part="1" 
AR Path="/5C800C4C/59C29771" Ref="PQ9"  Part="1" 
F 0 "PQ9" H 7450 4800 50  0000 C CNN
F 1 "PQ9-Connector" H 7850 3800 50  0000 C CNN
F 2 "Connector_PinSocket_2.00mm:PinSocket_1x09_P2.00mm_Vertical" H 7450 4300 50  0001 C CNN
F 3 "https://libre.space/pq9ish" H 7450 4300 50  0001 C CNN
F 4 "SQT-109-03-LS" H -550 1400 50  0001 C CNN "Part Number"
	1    7450 4300
	1    0    0    -1  
$EndComp
$Comp
L Interface_CAN_LIN:TCAN334 U3
U 1 1 5C75CDDA
P 5650 4000
F 0 "U3" H 5800 4550 50  0000 C CNN
F 1 "TCAN334" H 5900 4450 50  0000 C CNN
F 2 "Package_TO_SOT_SMD:SOT-23-8_Handsoldering" H 5650 3500 50  0001 C CIN
F 3 "http://www.ti.com/lit/ds/symlink/tcan337.pdf" H 5650 4000 50  0001 C CNN
F 4 "TCAN334" H -900 1300 50  0001 C CNN "Part Number"
	1    5650 4000
	1    0    0    -1  
$EndComp
$Comp
L power:GND #PWR04
U 1 1 5C75E0AA
P 7450 4950
F 0 "#PWR04" H 7450 4700 50  0001 C CNN
F 1 "GND" H 7450 4800 50  0000 C CNN
F 2 "" H 7450 4950 50  0001 C CNN
F 3 "" H 7450 4950 50  0001 C CNN
	1    7450 4950
	1    0    0    -1  
$EndComp
Wire Wire Line
	7450 4900 7450 4950
Wire Wire Line
	4200 4100 5150 4100
Text HLabel 4200 4200 0    50   Input ~ 0
CAN_STB
Text GLabel 6250 4500 0    50   Input ~ 0
Vin
$Comp
L Device:C C25
U 1 1 5C84E31B
P 4850 2750
F 0 "C25" H 4965 2796 50  0000 L CNN
F 1 "100nF" H 4965 2705 50  0000 L CNN
F 2 "Capacitor_SMD:C_0603_1608Metric_Pad1.05x0.95mm_HandSolder" H 4888 2600 50  0001 C CNN
F 3 "~" H 4850 2750 50  0001 C CNN
F 4 "EMF107B7104KAHT" H 4850 2750 50  0001 C CNN "Part Number"
	1    4850 2750
	1    0    0    -1  
$EndComp
$Comp
L Device:C C26
U 1 1 5C84E3A3
P 5350 2750
F 0 "C26" H 5465 2796 50  0000 L CNN
F 1 "1μF" H 5465 2705 50  0000 L CNN
F 2 "Capacitor_SMD:C_0603_1608Metric_Pad1.05x0.95mm_HandSolder" H 5388 2600 50  0001 C CNN
F 3 "~" H 5350 2750 50  0001 C CNN
F 4 "UMK107ABJ105MAHT" H 5350 2750 50  0001 C CNN "Part Number"
	1    5350 2750
	1    0    0    -1  
$EndComp
Wire Wire Line
	4850 2600 5350 2600
Connection ~ 5650 2600
Connection ~ 5350 2600
Wire Wire Line
	5350 2600 5650 2600
$Comp
L power:GND #PWR0110
U 1 1 5C84E5D8
P 4850 2900
F 0 "#PWR0110" H 4850 2650 50  0001 C CNN
F 1 "GND" H 4855 2727 50  0000 C CNN
F 2 "" H 4850 2900 50  0001 C CNN
F 3 "" H 4850 2900 50  0001 C CNN
	1    4850 2900
	1    0    0    -1  
$EndComp
$Comp
L power:GND #PWR0111
U 1 1 5C84E5F4
P 5350 2900
F 0 "#PWR0111" H 5350 2650 50  0001 C CNN
F 1 "GND" H 5355 2727 50  0000 C CNN
F 2 "" H 5350 2900 50  0001 C CNN
F 3 "" H 5350 2900 50  0001 C CNN
	1    5350 2900
	1    0    0    -1  
$EndComp
$Comp
L Device:Ferrite_Bead_Small FB1
U 1 1 5CF85F02
P 5650 2500
F 0 "FB1" H 5750 2546 50  0000 L CNN
F 1 "Ferrite_Bead_Small" H 5750 2455 50  0000 L CNN
F 2 "Inductor_SMD:L_1806_4516Metric_Pad1.57x1.80mm_HandSolder" V 5580 2500 50  0001 C CNN
F 3 "~" H 5650 2500 50  0001 C CNN
F 4 "HZ0603A152R-10" H 5650 2500 50  0001 C CNN "Part Number"
	1    5650 2500
	1    0    0    -1  
$EndComp
Wire Wire Line
	5650 2150 5650 2400
$Comp
L power:PWR_FLAG #FLG0102
U 1 1 5CF93C18
P 5650 3150
F 0 "#FLG0102" H 5650 3225 50  0001 C CNN
F 1 "PWR_FLAG" V 5650 3278 50  0000 L CNN
F 2 "" H 5650 3150 50  0001 C CNN
F 3 "~" H 5650 3150 50  0001 C CNN
	1    5650 3150
	0    1    1    0   
$EndComp
Connection ~ 5650 3150
Wire Wire Line
	5650 3150 5650 3600
$Comp
L Jumper:SolderJumper_2_Open V1
U 1 1 5D76897F
P 6700 4200
F 0 "V1" H 6400 4150 50  0000 C CNN
F 1 "SolderJumper_2_Open" H 6700 4314 50  0001 C CNN
F 2 "Jumper:SolderJumper-2_P1.3mm_Open_TrianglePad1.0x1.5mm" H 6700 4200 50  0001 C CNN
F 3 "~" H 6700 4200 50  0001 C CNN
	1    6700 4200
	1    0    0    -1  
$EndComp
Wire Wire Line
	6150 4100 7050 4100
$Comp
L Jumper:SolderJumper_2_Open V2
U 1 1 5D76B6F3
P 6700 4300
F 0 "V2" H 6400 4250 50  0000 C CNN
F 1 "SolderJumper_2_Open" H 6700 4414 50  0001 C CNN
F 2 "Jumper:SolderJumper-2_P1.3mm_Open_TrianglePad1.0x1.5mm" H 6700 4300 50  0001 C CNN
F 3 "~" H 6700 4300 50  0001 C CNN
	1    6700 4300
	1    0    0    -1  
$EndComp
$Comp
L Jumper:SolderJumper_2_Open V3
U 1 1 5D76BFA5
P 6700 4400
F 0 "V3" H 6400 4350 50  0000 C CNN
F 1 "SolderJumper_2_Open" H 6700 4514 50  0001 C CNN
F 2 "Jumper:SolderJumper-2_P1.3mm_Open_TrianglePad1.0x1.5mm" H 6700 4400 50  0001 C CNN
F 3 "~" H 6700 4400 50  0001 C CNN
	1    6700 4400
	1    0    0    -1  
$EndComp
$Comp
L Jumper:SolderJumper_2_Open V4
U 1 1 5D76C376
P 6700 4500
F 0 "V4" H 6400 4450 50  0000 C CNN
F 1 "SolderJumper_2_Open" H 6700 4276 50  0001 C CNN
F 2 "Jumper:SolderJumper-2_P1.3mm_Open_TrianglePad1.0x1.5mm" H 6700 4500 50  0001 C CNN
F 3 "~" H 6700 4500 50  0001 C CNN
	1    6700 4500
	1    0    0    -1  
$EndComp
Wire Wire Line
	6150 3900 6800 3900
Wire Wire Line
	6800 3900 6800 4000
Wire Wire Line
	6800 4000 7050 4000
Wire Wire Line
	7050 4500 6850 4500
Wire Wire Line
	6550 4200 6550 4300
Connection ~ 6550 4500
Connection ~ 6550 4300
Wire Wire Line
	6550 4300 6550 4400
Connection ~ 6550 4400
Wire Wire Line
	6550 4400 6550 4500
Wire Wire Line
	6850 4200 7050 4200
Wire Wire Line
	7050 4300 6850 4300
Wire Wire Line
	6850 4400 7050 4400
Wire Wire Line
	6250 4500 6550 4500
$EndSCHEMATC
