EESchema Schematic File Version 4
EELAYER 30 0
EELAYER END
$Descr A4 11693 8268
encoding utf-8
Sheet 3 5
Title ""
Date ""
Rev ""
Comp ""
Comment1 ""
Comment2 ""
Comment3 ""
Comment4 ""
$EndDescr
$Comp
L power:GND #PWR012
U 1 1 5C80166F
P 4350 3800
F 0 "#PWR012" H 4350 3550 50  0001 C CNN
F 1 "GND" H 4355 3627 50  0000 C CNN
F 2 "" H 4350 3800 50  0001 C CNN
F 3 "" H 4350 3800 50  0001 C CNN
	1    4350 3800
	1    0    0    -1  
$EndComp
$Comp
L power:GND #PWR010
U 1 1 5C801683
P 2650 3800
F 0 "#PWR010" H 2650 3550 50  0001 C CNN
F 1 "GND" H 2655 3627 50  0000 C CNN
F 2 "" H 2650 3800 50  0001 C CNN
F 3 "" H 2650 3800 50  0001 C CNN
	1    2650 3800
	1    0    0    -1  
$EndComp
$Comp
L power:GND #PWR09
U 1 1 5C801697
P 2350 3800
F 0 "#PWR09" H 2350 3550 50  0001 C CNN
F 1 "GND" H 2355 3627 50  0000 C CNN
F 2 "" H 2350 3800 50  0001 C CNN
F 3 "" H 2350 3800 50  0001 C CNN
	1    2350 3800
	1    0    0    -1  
$EndComp
$Comp
L power:GND #PWR08
U 1 1 5C8016AB
P 2050 3800
F 0 "#PWR08" H 2050 3550 50  0001 C CNN
F 1 "GND" H 2055 3627 50  0000 C CNN
F 2 "" H 2050 3800 50  0001 C CNN
F 3 "" H 2050 3800 50  0001 C CNN
	1    2050 3800
	1    0    0    -1  
$EndComp
$Comp
L power:GND #PWR07
U 1 1 5C8016BF
P 1450 3800
F 0 "#PWR07" H 1450 3550 50  0001 C CNN
F 1 "GND" H 1455 3627 50  0000 C CNN
F 2 "" H 1450 3800 50  0001 C CNN
F 3 "" H 1450 3800 50  0001 C CNN
	1    1450 3800
	1    0    0    -1  
$EndComp
$Comp
L Device:R R12
U 1 1 5C80179F
P 4350 3550
F 0 "R12" H 4420 3596 50  0000 L CNN
F 1 "49.9" H 4420 3505 50  0000 L CNN
F 2 "Resistor_SMD:R_0603_1608Metric_Pad1.05x0.95mm_HandSolder" V 4280 3550 50  0001 C CNN
F 3 "~" H 4350 3550 50  0001 C CNN
F 4 "RE0603FRE0749R9L" H 1150 0   50  0001 C CNN "Part Number"
	1    4350 3550
	1    0    0    -1  
$EndComp
$Comp
L Device:R R11
U 1 1 5C80180E
P 1750 3250
F 0 "R11" V 1543 3250 50  0000 C CNN
F 1 "49.9" V 1634 3250 50  0000 C CNN
F 2 "Resistor_SMD:R_0603_1608Metric_Pad1.05x0.95mm_HandSolder" V 1680 3250 50  0001 C CNN
F 3 "~" H 1750 3250 50  0001 C CNN
F 4 "RE0603FRE0749R9L" H 0   0   50  0001 C CNN "Part Number"
	1    1750 3250
	0    1    1    0   
$EndComp
$Comp
L Device:R R13
U 1 1 5C801856
P 1150 3250
F 0 "R13" V 943 3250 50  0000 C CNN
F 1 "49.9" V 1034 3250 50  0000 C CNN
F 2 "Resistor_SMD:R_0603_1608Metric_Pad1.05x0.95mm_HandSolder" V 1080 3250 50  0001 C CNN
F 3 "~" H 1150 3250 50  0001 C CNN
F 4 "RE0603FRE0749R9L" H 0   0   50  0001 C CNN "Part Number"
	1    1150 3250
	0    1    1    0   
$EndComp
$Comp
L Device:C C11
U 1 1 5C80195E
P 1450 3550
F 0 "C11" H 1565 3596 50  0000 L CNN
F 1 "10nF" H 1565 3505 50  0000 L CNN
F 2 "Capacitor_SMD:C_0603_1608Metric_Pad1.05x0.95mm_HandSolder" H 1488 3400 50  0001 C CNN
F 3 "~" H 1450 3550 50  0001 C CNN
F 4 "CC0603KRX7R9BB103" H 1450 3550 50  0001 C CNN "Part Number"
	1    1450 3550
	1    0    0    -1  
$EndComp
$Comp
L Device:C C8
U 1 1 5C8019AC
P 2050 3550
F 0 "C8" H 2165 3596 50  0000 L CNN
F 1 "10nF" H 2165 3505 50  0000 L CNN
F 2 "Capacitor_SMD:C_0603_1608Metric_Pad1.05x0.95mm_HandSolder" H 2088 3400 50  0001 C CNN
F 3 "~" H 2050 3550 50  0001 C CNN
F 4 "CC0603KRX7R9BB103" H 2050 3550 50  0001 C CNN "Part Number"
	1    2050 3550
	1    0    0    -1  
$EndComp
$Comp
L Device:C C9
U 1 1 5C8019DD
P 2350 3550
F 0 "C9" H 2465 3596 50  0000 L CNN
F 1 "10nF" H 2465 3505 50  0000 L CNN
F 2 "Capacitor_SMD:C_0603_1608Metric_Pad1.05x0.95mm_HandSolder" H 2388 3400 50  0001 C CNN
F 3 "~" H 2350 3550 50  0001 C CNN
F 4 "CC0603KRX7R9BB103" H 2350 3550 50  0001 C CNN "Part Number"
	1    2350 3550
	1    0    0    -1  
$EndComp
$Comp
L Device:C C10
U 1 1 5C801A0E
P 2650 3550
F 0 "C10" H 2765 3596 50  0000 L CNN
F 1 "10nF" H 2765 3505 50  0000 L CNN
F 2 "Capacitor_SMD:C_0603_1608Metric_Pad1.05x0.95mm_HandSolder" H 2688 3400 50  0001 C CNN
F 3 "~" H 2650 3550 50  0001 C CNN
F 4 "CC0603KRX7R9BB103" H 2650 3550 50  0001 C CNN "Part Number"
	1    2650 3550
	1    0    0    -1  
$EndComp
Wire Wire Line
	1600 3250 1450 3250
Wire Wire Line
	1450 3400 1450 3250
Connection ~ 1450 3250
Wire Wire Line
	1450 3250 1300 3250
Wire Wire Line
	2050 3400 2050 3250
Connection ~ 2050 3250
Wire Wire Line
	2050 3250 1900 3250
Wire Wire Line
	2350 3400 2350 3250
Connection ~ 2350 3250
Wire Wire Line
	2350 3250 2050 3250
Wire Wire Line
	2650 3400 2650 3250
Wire Wire Line
	2650 3250 2350 3250
Wire Wire Line
	2650 3700 2650 3800
Wire Wire Line
	2350 3700 2350 3800
Wire Wire Line
	2050 3700 2050 3800
Wire Wire Line
	1450 3700 1450 3800
Wire Wire Line
	4350 3700 4350 3800
$Comp
L power:+28V #PWR06
U 1 1 5C803DAA
P 1000 2950
F 0 "#PWR06" H 1000 2800 50  0001 C CNN
F 1 "+28V" H 1015 3123 50  0000 C CNN
F 2 "" H 1250 3000 50  0001 C CNN
F 3 "" H 1250 3000 50  0001 C CNN
	1    1000 2950
	1    0    0    -1  
$EndComp
Wire Wire Line
	1000 2950 1000 3250
Text HLabel 10300 2800 2    50   Input ~ 0
S_Out
Wire Wire Line
	4350 3250 4350 3400
Wire Wire Line
	4350 3250 4600 3250
$Comp
L Device:R R4
U 1 1 5C8056F3
P 5200 3250
F 0 "R4" V 4993 3250 50  0000 C CNN
F 1 "1K" V 5084 3250 50  0000 C CNN
F 2 "Resistor_SMD:R_0603_1608Metric_Pad1.05x0.95mm_HandSolder" V 5130 3250 50  0001 C CNN
F 3 "~" H 5200 3250 50  0001 C CNN
F 4 "CRCW06031K00FKEA" H 1150 0   50  0001 C CNN "Part Number"
	1    5200 3250
	0    1    1    0   
$EndComp
$Comp
L lsf-kicad:LT1807xMS8 U2
U 1 1 5C8105D2
P 5950 3350
AR Path="/5C8105D2" Ref="U2"  Part="1" 
AR Path="/5C80122F/5C8105D2" Ref="U2"  Part="1" 
F 0 "U2" H 6291 3396 50  0000 L CNN
F 1 "LT1807xMS8#PBF" H 6100 3550 50  0000 L CNN
F 2 "Package_SO:MSOP-8_3x3mm_P0.65mm" H 6200 3850 50  0001 C CNN
F 3 "http://cds.linear.com/docs/en/datasheet/60812fd.pdf" H 5950 3350 50  0001 C CNN
F 4 "LT1807xMS8#PBF" H 1150 0   50  0001 C CNN "Part Number"
	1    5950 3350
	1    0    0    -1  
$EndComp
$Comp
L lsf-kicad:LT1807xMS8 U2
U 2 1 5C810661
P 7850 3450
AR Path="/5C810661" Ref="U2"  Part="2" 
AR Path="/5C80122F/5C810661" Ref="U2"  Part="2" 
F 0 "U2" H 8000 3600 50  0000 L CNN
F 1 "LT1807xMS8#PBF" H 8000 3750 50  0000 L CNN
F 2 "Package_SO:MSOP-8_3x3mm_P0.65mm" H 8100 3950 50  0001 C CNN
F 3 "http://cds.linear.com/docs/en/datasheet/60812fd.pdf" H 7850 3450 50  0001 C CNN
F 4 "LT1807xMS8#PBF" H 1150 0   50  0001 C CNN "Part Number"
	2    7850 3450
	1    0    0    -1  
$EndComp
Wire Wire Line
	5350 3250 5450 3250
Wire Wire Line
	7850 3050 7850 2750
Wire Wire Line
	7850 2750 6900 2750
Wire Wire Line
	5950 2750 5950 2950
$Comp
L Device:R R3
U 1 1 5C811EDE
P 5450 4400
F 0 "R3" H 5520 4446 50  0000 L CNN
F 1 "249k" H 5520 4355 50  0000 L CNN
F 2 "Resistor_SMD:R_0603_1608Metric_Pad1.05x0.95mm_HandSolder" V 5380 4400 50  0001 C CNN
F 3 "~" H 5450 4400 50  0001 C CNN
F 4 "RCS0603249KFKEA" H 1150 0   50  0001 C CNN "Part Number"
	1    5450 4400
	1    0    0    -1  
$EndComp
$Comp
L Device:R R5
U 1 1 5C811F58
P 6400 4100
F 0 "R5" V 6193 4100 50  0000 C CNN
F 1 "10k" V 6284 4100 50  0000 C CNN
F 2 "Resistor_SMD:R_0603_1608Metric_Pad1.05x0.95mm_HandSolder" V 6330 4100 50  0001 C CNN
F 3 "~" H 6400 4100 50  0001 C CNN
F 4 "RE0603BRE0710KL" H 1150 0   50  0001 C CNN "Part Number"
	1    6400 4100
	0    1    1    0   
$EndComp
$Comp
L Device:R R20
U 1 1 5C811FC3
P 6900 3600
F 0 "R20" H 6830 3554 50  0000 R CNN
F 1 "10k" H 6830 3645 50  0000 R CNN
F 2 "Resistor_SMD:R_0603_1608Metric_Pad1.05x0.95mm_HandSolder" V 6830 3600 50  0001 C CNN
F 3 "~" H 6900 3600 50  0001 C CNN
F 4 "RE0603BRE0710KL" H 1150 0   50  0001 C CNN "Part Number"
	1    6900 3600
	-1   0    0    1   
$EndComp
$Comp
L Device:R R6
U 1 1 5C81201D
P 7450 4400
F 0 "R6" H 7380 4354 50  0000 R CNN
F 1 "100k" H 7380 4445 50  0000 R CNN
F 2 "Resistor_SMD:R_0603_1608Metric_Pad1.05x0.95mm_HandSolder" V 7380 4400 50  0001 C CNN
F 3 "~" H 7450 4400 50  0001 C CNN
F 4 "ERJ-3GEY0R00V" H 7450 4400 50  0001 C CNN "Part Number"
	1    7450 4400
	-1   0    0    1   
$EndComp
$Comp
L Device:R R7
U 1 1 5C812074
P 8200 4550
F 0 "R7" V 8407 4550 50  0000 C CNN
F 1 "100k" V 8316 4550 50  0000 C CNN
F 2 "Resistor_SMD:R_0603_1608Metric_Pad1.05x0.95mm_HandSolder" V 8130 4550 50  0001 C CNN
F 3 "~" H 8200 4550 50  0001 C CNN
F 4 "ERJ-3GEY0R00V" H 8200 4550 50  0001 C CNN "Part Number"
	1    8200 4550
	0    -1   -1   0   
$EndComp
$Comp
L power:GND #PWR016
U 1 1 5C8121F6
P 5450 4600
F 0 "#PWR016" H 5450 4350 50  0001 C CNN
F 1 "GND" H 5455 4427 50  0000 C CNN
F 2 "" H 5450 4600 50  0001 C CNN
F 3 "" H 5450 4600 50  0001 C CNN
	1    5450 4600
	1    0    0    -1  
$EndComp
$Comp
L power:GND #PWR020
U 1 1 5C812248
P 6900 3900
F 0 "#PWR020" H 6900 3650 50  0001 C CNN
F 1 "GND" H 6905 3727 50  0000 C CNN
F 2 "" H 6900 3900 50  0001 C CNN
F 3 "" H 6900 3900 50  0001 C CNN
	1    6900 3900
	1    0    0    -1  
$EndComp
$Comp
L power:GND #PWR021
U 1 1 5C812278
P 7450 4600
F 0 "#PWR021" H 7450 4350 50  0001 C CNN
F 1 "GND" H 7455 4427 50  0000 C CNN
F 2 "" H 7450 4600 50  0001 C CNN
F 3 "" H 7450 4600 50  0001 C CNN
	1    7450 4600
	1    0    0    -1  
$EndComp
$Comp
L power:GND #PWR018
U 1 1 5C8122B8
P 6150 2350
F 0 "#PWR018" H 6150 2100 50  0001 C CNN
F 1 "GND" H 6155 2177 50  0000 C CNN
F 2 "" H 6150 2350 50  0001 C CNN
F 3 "" H 6150 2350 50  0001 C CNN
	1    6150 2350
	1    0    0    -1  
$EndComp
Wire Wire Line
	6900 3450 6900 3350
Connection ~ 6900 3350
Wire Wire Line
	6900 3350 7350 3350
Wire Wire Line
	6900 3750 6900 3900
Wire Wire Line
	5650 3450 5450 3450
Wire Wire Line
	5450 4550 5450 4600
$Comp
L power:GND #PWR017
U 1 1 5C814758
P 5950 3850
F 0 "#PWR017" H 5950 3600 50  0001 C CNN
F 1 "GND" H 5955 3677 50  0000 C CNN
F 2 "" H 5950 3850 50  0001 C CNN
F 3 "" H 5950 3850 50  0001 C CNN
	1    5950 3850
	1    0    0    -1  
$EndComp
$Comp
L power:GND #PWR022
U 1 1 5C81478A
P 7850 3900
F 0 "#PWR022" H 7850 3650 50  0001 C CNN
F 1 "GND" H 7855 3727 50  0000 C CNN
F 2 "" H 7850 3900 50  0001 C CNN
F 3 "" H 7850 3900 50  0001 C CNN
	1    7850 3900
	1    0    0    -1  
$EndComp
Wire Wire Line
	7850 3850 7850 3900
Wire Wire Line
	5950 3750 5950 3850
Wire Wire Line
	7450 4250 7450 4150
Wire Wire Line
	7450 3550 7550 3550
Wire Wire Line
	7450 4550 7450 4600
Wire Wire Line
	5450 3450 5450 4100
Wire Wire Line
	6250 4100 6150 4100
Connection ~ 5450 4100
Wire Wire Line
	5450 4100 5450 4250
Wire Wire Line
	8100 4150 7950 4150
Connection ~ 7450 4150
Wire Wire Line
	7450 4150 7450 3550
Wire Wire Line
	6250 4450 6150 4450
Wire Wire Line
	6150 4450 6150 4100
Connection ~ 6150 4100
Wire Wire Line
	6150 4100 5450 4100
Wire Wire Line
	6350 3350 6700 3350
$Comp
L Device:C C7
U 1 1 5C8185C6
P 6400 4450
F 0 "C7" V 6250 4450 50  0000 C CNN
F 1 "10.0pF" V 6150 4450 50  0000 C CNN
F 2 "Capacitor_SMD:C_0603_1608Metric_Pad1.05x0.95mm_HandSolder" H 6438 4300 50  0001 C CNN
F 3 "~" H 6400 4450 50  0001 C CNN
F 4 "06035A100JAT2A" H 6400 4450 50  0001 C CNN "Part Number"
	1    6400 4450
	0    -1   -1   0   
$EndComp
Wire Wire Line
	6550 4450 6700 4450
Wire Wire Line
	6700 4450 6700 4100
Connection ~ 6700 3350
Wire Wire Line
	6700 3350 6900 3350
Wire Wire Line
	6550 4100 6700 4100
Connection ~ 6700 4100
Wire Wire Line
	6700 4100 6700 3350
$Comp
L Device:C C5
U 1 1 5C81B039
P 6550 2100
F 0 "C5" H 6665 2146 50  0000 L CNN
F 1 "0.1uF" H 6665 2055 50  0000 L CNN
F 2 "Capacitor_SMD:C_0603_1608Metric_Pad1.05x0.95mm_HandSolder" H 6588 1950 50  0001 C CNN
F 3 "~" H 6550 2100 50  0001 C CNN
F 4 "C0603C104K5RACTU" H 6550 2100 50  0001 C CNN "Part Number"
	1    6550 2100
	1    0    0    -1  
$EndComp
$Comp
L Device:C C4
U 1 1 5C81B0D9
P 6150 2100
F 0 "C4" H 6265 2146 50  0000 L CNN
F 1 "10uF" H 6265 2055 50  0000 L CNN
F 2 "Capacitor_SMD:C_0603_1608Metric_Pad1.05x0.95mm_HandSolder" H 6188 1950 50  0001 C CNN
F 3 "~" H 6150 2100 50  0001 C CNN
F 4 "GRM188R60J106KE47D" H 6150 2100 50  0001 C CNN "Part Number"
	1    6150 2100
	1    0    0    -1  
$EndComp
Wire Wire Line
	6150 1950 6550 1950
Wire Wire Line
	6900 1950 6900 2750
Connection ~ 6550 1950
Wire Wire Line
	6550 1950 6900 1950
Connection ~ 6900 2750
Wire Wire Line
	6900 2750 5950 2750
Wire Wire Line
	6550 2300 6550 2250
$Comp
L Device:D_Schottky D2
U 1 1 5C81D0CF
P 8250 4150
F 0 "D2" H 8250 3934 50  0000 C CNN
F 1 "D_Schottky" H 8250 4025 50  0000 C CNN
F 2 "Diode_SMD:D_SOD-123" H 8250 4150 50  0001 C CNN
F 3 "~" H 8250 4150 50  0001 C CNN
F 4 "MBR0540" H 1150 0   50  0001 C CNN "Part Number"
	1    8250 4150
	-1   0    0    1   
$EndComp
$Comp
L Device:D_Schottky D1
U 1 1 5C81D1AD
P 8700 3450
F 0 "D1" H 8700 3234 50  0000 C CNN
F 1 "D_Schottky" H 8700 3325 50  0000 C CNN
F 2 "Diode_SMD:D_SOD-123" H 8700 3450 50  0001 C CNN
F 3 "~" H 8700 3450 50  0001 C CNN
F 4 "MBR0540" H 1150 0   50  0001 C CNN "Part Number"
	1    8700 3450
	-1   0    0    1   
$EndComp
Wire Wire Line
	8250 3450 8500 3450
Wire Wire Line
	8400 4150 8500 4150
Wire Wire Line
	8500 4150 8500 3450
Connection ~ 8500 3450
Wire Wire Line
	8500 3450 8550 3450
Wire Wire Line
	8850 3450 9000 3450
Wire Wire Line
	9000 3450 9000 4550
Wire Wire Line
	9000 4550 8350 4550
Wire Wire Line
	8050 4550 7950 4550
Wire Wire Line
	7950 4550 7950 4150
Connection ~ 7950 4150
Wire Wire Line
	7950 4150 7450 4150
$Comp
L Device:C C6
U 1 1 5C82321F
P 9300 3750
F 0 "C6" H 9415 3796 50  0000 L CNN
F 1 "20nF" H 9415 3705 50  0000 L CNN
F 2 "Capacitor_SMD:C_0603_1608Metric_Pad1.05x0.95mm_HandSolder" H 9338 3600 50  0001 C CNN
F 3 "~" H 9300 3750 50  0001 C CNN
F 4 "CL10B203KB8NNNC" H 9300 3750 50  0001 C CNN "Part Number"
	1    9300 3750
	1    0    0    -1  
$EndComp
Wire Wire Line
	9300 3450 9300 3600
Connection ~ 9000 3450
$Comp
L power:GND #PWR023
U 1 1 5C824159
P 9300 4050
F 0 "#PWR023" H 9300 3800 50  0001 C CNN
F 1 "GND" H 9305 3877 50  0000 C CNN
F 2 "" H 9300 4050 50  0001 C CNN
F 3 "" H 9300 4050 50  0001 C CNN
	1    9300 4050
	1    0    0    -1  
$EndComp
Wire Wire Line
	9300 3900 9300 4050
$Comp
L Device:C C14
U 1 1 5C82522E
P 9650 3450
F 0 "C14" V 9398 3450 50  0000 C CNN
F 1 "0" V 9489 3450 50  0000 C CNN
F 2 "Capacitor_SMD:C_0603_1608Metric_Pad1.05x0.95mm_HandSolder" H 9688 3300 50  0001 C CNN
F 3 "~" H 9650 3450 50  0001 C CNN
F 4 "RC0805JR-070RL" H 9650 3450 50  0001 C CNN "Part Number"
	1    9650 3450
	0    1    1    0   
$EndComp
$Comp
L Device:R R24
U 1 1 5C82537F
P 10000 3750
F 0 "R24" H 10070 3796 50  0000 L CNN
F 1 "24.9k" H 10070 3705 50  0000 L CNN
F 2 "Resistor_SMD:R_0603_1608Metric_Pad1.05x0.95mm_HandSolder" V 9930 3750 50  0001 C CNN
F 3 "~" H 10000 3750 50  0001 C CNN
F 4 "RC0603FR-0724K9L" H 1150 0   50  0001 C CNN "Part Number"
	1    10000 3750
	1    0    0    -1  
$EndComp
$Comp
L Device:R R9
U 1 1 5C825473
P 10000 3150
F 0 "R9" H 10070 3196 50  0000 L CNN
F 1 "0" H 10070 3105 50  0000 L CNN
F 2 "Resistor_SMD:R_0603_1608Metric_Pad1.05x0.95mm_HandSolder" V 9930 3150 50  0001 C CNN
F 3 "~" H 10000 3150 50  0001 C CNN
F 4 "RC0805JR-070RL" H 10000 3150 50  0001 C CNN "Part Number"
	1    10000 3150
	1    0    0    -1  
$EndComp
Wire Wire Line
	10300 2800 10000 2800
Wire Wire Line
	10000 2800 10000 3000
Wire Wire Line
	10000 3300 10000 3450
Wire Wire Line
	9800 3450 10000 3450
Connection ~ 10000 3450
Wire Wire Line
	10000 3450 10000 3600
Wire Wire Line
	9000 3450 9300 3450
Connection ~ 9300 3450
Wire Wire Line
	9300 3450 9500 3450
$Comp
L power:GND #PWR024
U 1 1 5C82940A
P 10000 4050
F 0 "#PWR024" H 10000 3800 50  0001 C CNN
F 1 "GND" H 10005 3877 50  0000 C CNN
F 2 "" H 10000 4050 50  0001 C CNN
F 3 "" H 10000 4050 50  0001 C CNN
	1    10000 4050
	1    0    0    -1  
$EndComp
Wire Wire Line
	10000 4050 10000 3900
Wire Notes Line
	7250 2650 9550 2650
Wire Notes Line
	9550 2650 9550 4900
Wire Notes Line
	9550 4900 7250 4900
Wire Notes Line
	7250 4900 7250 2650
Wire Notes Line
	6800 2700 5300 2700
Wire Notes Line
	5300 2700 5300 4900
Wire Notes Line
	5300 4900 6800 4900
Wire Notes Line
	6800 4900 6800 2700
Text Notes 6300 4900 0    50   ~ 0
Amplification
Text Notes 9000 4900 0    50   ~ 0
Peak Detector
$Comp
L Connector_Generic:Conn_02x03_Odd_Even J1
U 1 1 5C82CE76
P 4550 2450
F 0 "J1" H 4600 2767 50  0000 C CNN
F 1 "Conn_02x03_Odd_Even" H 4600 2676 50  0000 C CNN
F 2 "Connector_PinSocket_2.54mm:PinSocket_2x03_P2.54mm_Vertical_SMD" H 4550 2450 50  0001 C CNN
F 3 "~" H 4550 2450 50  0001 C CNN
F 4 "803-87-006-10-001101" H 1150 0   50  0001 C CNN "Part Number"
	1    4550 2450
	1    0    0    -1  
$EndComp
Wire Wire Line
	4850 2550 4950 2550
Wire Wire Line
	4950 2550 4950 2750
Wire Wire Line
	4950 3250 5050 3250
Wire Wire Line
	4350 2550 4350 2750
Wire Wire Line
	4350 2750 4950 2750
Connection ~ 4950 2750
Wire Wire Line
	4950 2750 4950 3250
$Comp
L Device:Jumper_NO_Small JP1
U 1 1 5C8332A3
P 4700 3250
F 0 "JP1" H 4700 3343 50  0000 C CNN
F 1 "Jumper_NO_Small" H 4700 3344 50  0001 C CNN
F 2 "Jumper:SolderJumper-2_P1.3mm_Open_Pad1.0x1.5mm" H 4700 3250 50  0001 C CNN
F 3 "~" H 4700 3250 50  0001 C CNN
	1    4700 3250
	1    0    0    -1  
$EndComp
Wire Wire Line
	4950 3250 4800 3250
Connection ~ 4950 3250
$Comp
L power:GND #PWR011
U 1 1 5C836251
P 4150 2450
F 0 "#PWR011" H 4150 2200 50  0001 C CNN
F 1 "GND" H 4155 2277 50  0000 C CNN
F 2 "" H 4150 2450 50  0001 C CNN
F 3 "" H 4150 2450 50  0001 C CNN
	1    4150 2450
	1    0    0    -1  
$EndComp
$Comp
L power:GND #PWR015
U 1 1 5C836299
P 5100 2450
F 0 "#PWR015" H 5100 2200 50  0001 C CNN
F 1 "GND" H 5105 2277 50  0000 C CNN
F 2 "" H 5100 2450 50  0001 C CNN
F 3 "" H 5100 2450 50  0001 C CNN
	1    5100 2450
	1    0    0    -1  
$EndComp
Wire Wire Line
	5100 2450 4850 2450
Wire Wire Line
	4350 2450 4150 2450
Wire Wire Line
	4850 2350 5050 2350
Wire Wire Line
	5050 2350 5050 1950
Wire Wire Line
	5050 1950 4600 1950
Wire Wire Line
	4150 1950 4150 2350
Wire Wire Line
	4150 2350 4350 2350
$Comp
L power:+28V #PWR013
U 1 1 5C83AF4C
P 4600 1950
F 0 "#PWR013" H 4600 1800 50  0001 C CNN
F 1 "+28V" H 4615 2123 50  0000 C CNN
F 2 "" H 4850 2000 50  0001 C CNN
F 3 "" H 4850 2000 50  0001 C CNN
	1    4600 1950
	1    0    0    -1  
$EndComp
Connection ~ 4600 1950
Wire Wire Line
	4600 1950 4150 1950
$Comp
L Connector:Conn_Coaxial J2
U 1 1 5C83D18F
P 4950 3650
F 0 "J2" V 4833 3751 50  0000 L CNN
F 1 "U.fl" V 4924 3751 50  0000 L CNN
F 2 "Connector_Coaxial:U.FL_Molex_MCRF_73412-0110_Vertical" H 4950 3650 50  0001 C CNN
F 3 " ~" H 4950 3650 50  0001 C CNN
F 4 "CONUFL001-SMD" H 4950 3650 50  0001 C CNN "Part Number"
	1    4950 3650
	0    1    1    0   
$EndComp
$Comp
L power:GND #PWR014
U 1 1 5C83D325
P 4750 3750
F 0 "#PWR014" H 4750 3500 50  0001 C CNN
F 1 "GND" H 4755 3577 50  0000 C CNN
F 2 "" H 4750 3750 50  0001 C CNN
F 3 "" H 4750 3750 50  0001 C CNN
	1    4750 3750
	1    0    0    -1  
$EndComp
Wire Wire Line
	4750 3750 4750 3650
Wire Wire Line
	4950 3450 4950 3250
$Comp
L Connector:TestPoint TP1
U 1 1 5C845154
P 5450 2900
F 0 "TP1" H 5508 3020 50  0000 L CNN
F 1 "TestPoint" H 5508 2929 50  0000 L CNN
F 2 "TestPoint:TestPoint_Pad_D1.0mm" H 5650 2900 50  0001 C CNN
F 3 "~" H 5650 2900 50  0001 C CNN
	1    5450 2900
	1    0    0    -1  
$EndComp
$Comp
L Connector:TestPoint TP2
U 1 1 5C845274
P 7350 3000
F 0 "TP2" H 7408 3120 50  0000 L CNN
F 1 "TestPoint" H 7408 3029 50  0000 L CNN
F 2 "TestPoint:TestPoint_Pad_D1.0mm" H 7550 3000 50  0001 C CNN
F 3 "~" H 7550 3000 50  0001 C CNN
	1    7350 3000
	1    0    0    -1  
$EndComp
$Comp
L Connector:TestPoint TP3
U 1 1 5C8452CB
P 10000 2550
F 0 "TP3" H 10058 2670 50  0000 L CNN
F 1 "TestPoint" H 10058 2579 50  0000 L CNN
F 2 "TestPoint:TestPoint_Pad_D1.0mm" H 10200 2550 50  0001 C CNN
F 3 "~" H 10200 2550 50  0001 C CNN
	1    10000 2550
	1    0    0    -1  
$EndComp
Wire Wire Line
	5450 2900 5450 3250
Connection ~ 5450 3250
Wire Wire Line
	5450 3250 5650 3250
Wire Wire Line
	7350 3000 7350 3350
Connection ~ 7350 3350
Wire Wire Line
	7350 3350 7550 3350
Wire Wire Line
	10000 2550 10000 2800
Connection ~ 10000 2800
NoConn ~ 3500 3750
$Comp
L power:+3.3V #PWR0101
U 1 1 5C8492C5
P 6550 1950
F 0 "#PWR0101" H 6550 1800 50  0001 C CNN
F 1 "+3.3V" H 6565 2123 50  0000 C CNN
F 2 "" H 6550 1950 50  0001 C CNN
F 3 "" H 6550 1950 50  0001 C CNN
	1    6550 1950
	1    0    0    -1  
$EndComp
$Comp
L MICROFC-60035-SMT-TR1:MICROFC-60035-SMT-TR1 U6
U 1 1 5C831EDF
P 3500 3250
F 0 "U6" V 2933 3250 50  0000 C CNN
F 1 "MICROFC-60035-SMT-TR1" V 3024 3250 50  0000 C CNN
F 2 "lsf-kicad-lib:XDCR_MICROFC-60035-SMT-TR1" H 3500 3250 50  0001 L BNN
F 3 "SMD-4 ON Semiconductor" H 3500 3250 50  0001 L BNN
F 4 "MICROFC-60035-SMT-TR1" H 3500 3250 50  0001 C CNN "Part Number"
	1    3500 3250
	0    -1   1    0   
$EndComp
Wire Wire Line
	4350 3250 3900 3250
Connection ~ 4350 3250
Wire Wire Line
	3100 3250 2650 3250
Connection ~ 2650 3250
Wire Wire Line
	6150 2250 6150 2300
Connection ~ 6150 2300
Wire Wire Line
	6150 2300 6150 2350
Wire Wire Line
	6150 2300 6550 2300
NoConn ~ 3700 3750
$EndSCHEMATC
